timestamp,heart_rate,power,cadence,speed,distance
2024-08-19 18:14:06,109,2,48,14,3.8432212246788873
2024-08-19 18:14:07,110,1,49,12,7.259386765294605
2024-08-19 18:14:08,110,1,49,12,10.760527494880888
2024-08-19 18:14:09,108,20,49,13,14.646571794483396
2024-08-19 18:14:10,106,20,49,13,18.142073604133394
2024-08-19 18:14:11,105,44,37,12,21.47422199712859
2024-08-19 18:14:12,104,44,37,10,24.410953248209424
2024-08-19 18:14:13,102,0,29,9,26.925403841998843
2024-08-19 18:14:14,101,0,29,7,29.007698820034665
2024-08-19 18:14:15,100,0,29,6,30.588475363122093
2024-08-19 18:14:15,99,0,29,4,31.934476741817264
2024-08-19 18:14:17,99,0,29,3,32.98994415667322
2024-08-19 18:14:17,91,0,29,2,33.73238944676187
2024-08-19 18:14:19,87,0,0,1,34.22054812643263
2024-08-19 18:14:19,87,0,0,0,34.462140775389145
2024-08-19 18:14:20,87,0,0,0,34.64364153146744
2024-08-19 18:14:21,85,0,0,0,34.64364153146744
2024-08-19 18:14:22,84,0,0,0,34.64364153146744
2024-08-19 18:14:23,84,0,0,0,34.64364153146744
2024-08-19 18:14:24,84,0,0,0,34.64364153146744
2024-08-19 18:14:25,84,0,0,0,34.64364153146744
2024-08-19 18:14:26,84,0,0,0,34.64364153146744
2024-08-19 18:14:27,83,0,0,0,34.64364153146744
2024-08-19 18:14:28,82,0,0,0,34.64364153146744
2024-08-19 18:14:29,82,0,0,0,34.64364153146744
2024-08-19 18:14:30,82,0,0,0,34.64364153146744
2024-08-19 18:14:31,84,0,0,0,34.64364153146744
2024-08-19 18:14:32,84,0,0,0,34.64364153146744
2024-08-19 18:14:33,84,0,0,0,34.64364153146744
2024-08-19 18:14:34,87,0,0,0,34.64364153146744
2024-08-19 18:14:35,88,0,0,0,34.64364153146744
2024-08-19 18:14:36,88,0,0,0,34.64364153146744
2024-08-19 18:14:37,88,0,0,0,34.64364153146744
2024-08-19 18:14:38,88,0,0,0,34.64364153146744
2024-08-19 18:14:39,88,0,0,0,34.64364153146744
2024-08-19 18:14:40,88,0,0,0,34.64364153146744
2024-08-19 18:14:41,88,0,0,0,34.64364153146744
2024-08-19 18:14:42,88,0,0,0,34.64364153146744
2024-08-19 18:14:43,86,0,0,0,34.64364153146744
2024-08-19 18:14:44,86,0,0,0,34.64364153146744
2024-08-19 18:14:45,86,0,0,0,34.64364153146744
2024-08-19 18:14:46,86,0,0,0,34.64364153146744
2024-08-19 18:14:47,87,0,0,0,34.64364153146744
2024-08-19 18:14:48,87,0,18,4,35.8170335981581
2024-08-19 18:14:49,89,0,18,6,37.51432918641303
2024-08-19 18:14:50,91,58,20,11,40.702337251106904
2024-08-19 18:14:51,93,58,20,16,45.19664324389564
2024-08-19 18:14:52,95,151,24,18,50.05425256821845
2024-08-19 18:14:53,96,98,40,19,55.518942597839576
2024-08-19 18:14:54,97,104,45,21,61.21919272542001
2024-08-19 18:14:55,99,98,51,22,67.30766580700875
2024-08-19 18:14:56,103,87,50,22,73.71836648450957
2024-08-19 18:14:57,105,8,61,21,79.55924978719817
2024-08-19 18:14:58,106,6,68,19,84.46425677405463
2024-08-19 18:14:59,107,5,77,17,89.17519501778814
2024-08-19 18:15:00,107,4,71,15,93.46471361252996
2024-08-19 18:15:01,107,2,65,13,97.45691361096169
2024-08-19 18:15:02,107,1,57,12,100.76463685234387
2024-08-19 18:15:02,106,1,57,10,103.51167359484566
2024-08-19 18:15:03,105,0,49,9,106.02344851096471
2024-08-19 18:15:04,104,0,49,7,108.14025805791219
2024-08-19 18:15:05,99,0,49,6,109.94146952629089
2024-08-19 18:15:06,99,0,49,5,111.32151720921198
2024-08-19 18:15:07,91,0,49,3,112.33531187309158
2024-08-19 18:15:08,90,0,0,2,113.09058004948827
2024-08-19 18:15:09,90,0,0,1,113.59370800985229
2024-08-19 18:15:10,85,0,0,1,113.88404358029365
2024-08-19 18:15:11,81,0,0,0,114.05733015139897
2024-08-19 18:15:12,81,0,0,0,114.05733015139897
2024-08-19 18:15:13,81,0,0,0,114.05733015139897
2024-08-19 18:15:14,80,0,0,0,114.05733015139897
2024-08-19 18:15:15,81,0,0,0,114.05733015139897
2024-08-19 18:15:16,83,0,0,0,114.05733015139897
2024-08-19 18:15:17,83,0,0,0,114.05733015139897
2024-08-19 18:15:18,83,0,0,0,114.05733015139897
2024-08-19 18:15:19,83,0,0,0,114.05733015139897
2024-08-19 18:15:20,83,0,0,0,114.05733015139897
2024-08-19 18:15:21,82,0,0,0,114.05733015139897
2024-08-19 18:15:22,82,0,0,0,114.05733015139897
2024-08-19 18:15:23,83,0,0,0,114.05733015139897
2024-08-19 18:15:24,84,0,0,0,114.05733015139897
2024-08-19 18:15:25,84,0,0,0,114.05733015139897
2024-08-19 18:15:26,84,0,0,0,114.05733015139897
2024-08-19 18:15:27,84,0,0,0,114.05733015139897
2024-08-19 18:15:28,85,0,0,0,114.05733015139897
2024-08-19 18:15:29,85,0,0,0,114.05733015139897
2024-08-19 18:15:30,85,0,0,0,114.05733015139897
2024-08-19 18:15:31,85,0,0,0,114.05733015139897
2024-08-19 18:15:32,85,0,0,0,114.05733015139897
2024-08-19 18:15:33,85,0,0,0,114.05733015139897
2024-08-19 18:15:34,86,0,0,0,114.05733015139897
2024-08-19 18:15:35,86,0,0,0,114.05733015139897
2024-08-19 18:15:36,86,0,0,0,114.05733015139897
2024-08-19 18:15:37,86,0,0,0,114.05733015139897
2024-08-19 18:15:38,87,0,0,0,114.05733015139897
2024-08-19 18:15:39,87,0,0,0,114.05733015139897
2024-08-19 18:15:40,87,0,0,0,114.05733015139897
2024-08-19 18:15:41,87,0,0,0,114.05733015139897
2024-08-19 18:15:42,90,0,0,0,114.05733015139897
2024-08-19 18:15:43,89,0,0,0,114.05733015139897
2024-08-19 18:15:44,89,0,0,0,114.05733015139897
2024-08-19 18:15:45,89,0,0,0,114.05733015139897
2024-08-19 18:15:46,90,0,0,0,114.05733015139897
2024-08-19 18:15:47,90,0,0,0,114.05733015139897
2024-08-19 18:15:48,88,0,0,0,114.05733015139897
2024-08-19 18:15:49,87,0,0,0,114.05733015139897
2024-08-19 18:15:50,87,0,0,5,115.50041875243187
2024-08-19 18:15:50,86,0,0,7,117.35873479247093
2024-08-19 18:15:51,88,6,30,11,120.61063683231671
2024-08-19 18:15:52,88,151,28,16,125.2375063518683
2024-08-19 18:15:53,88,146,31,19,130.50096722973717
2024-08-19 18:15:54,88,114,48,21,136.43590749634637
2024-08-19 18:15:55,101,107,51,22,142.1261341876454
2024-08-19 18:15:56,103,107,51,23,148.5100673245059
2024-08-19 18:15:57,106,101,55,23,154.94951751298373
2024-08-19 18:15:58,110,92,57,24,161.88533657126956
2024-08-19 18:15:59,111,91,58,24,168.60877411895328
2024-08-19 18:16:00,112,95,59,24,174.90329286191198
2024-08-19 18:16:01,112,93,60,24,181.6569056848685
2024-08-19 18:16:02,112,86,60,25,188.75697672830688
2024-08-19 18:16:03,112,88,61,25,195.55700239406693
2024-08-19 18:16:04,112,85,61,25,202.59594799346394
2024-08-19 18:16:05,111,91,61,25,208.9822207272053
2024-08-19 18:16:06,111,72,60,24,215.63744674987265
2024-08-19 18:16:07,110,8,68,22,221.90106374886304
2024-08-19 18:16:08,108,8,75,20,227.63180520402062
2024-08-19 18:16:09,107,6,80,18,232.34833477073246
2024-08-19 18:16:10,106,5,74,16,236.8855281319883
2024-08-19 18:16:11,106,3,68,14,241.00587606562507
2024-08-19 18:16:12,106,2,61,13,244.7195001317395
2024-08-19 18:16:13,98,1,54,11,247.97597304383913
2024-08-19 18:16:14,98,1,54,10,250.75422108968098
2024-08-19 18:16:15,90,0,45,8,252.94899705251058
2024-08-19 18:16:16,88,0,45,7,254.94579409427112
2024-08-19 18:16:17,86,0,45,5,256.61238921483357
2024-08-19 18:16:18,86,0,45,4,257.9170448819796
2024-08-19 18:16:19,86,0,45,3,258.81713314851123
2024-08-19 18:16:20,86,0,45,2,259.504208140903
2024-08-19 18:16:21,89,0,0,1,259.9484929197364
2024-08-19 18:16:22,90,0,0,0,260.1760076396995
2024-08-19 18:16:23,90,0,0,0,260.32295429772796
2024-08-19 18:16:24,90,0,0,0,260.32295429772796
2024-08-19 18:16:25,90,0,0,0,260.32295429772796
2024-08-19 18:16:26,90,0,0,0,260.32295429772796
2024-08-19 18:16:27,91,0,0,0,260.32295429772796
2024-08-19 18:16:28,91,0,0,0,260.32295429772796
2024-08-19 18:16:29,91,0,0,0,260.32295429772796
2024-08-19 18:16:30,91,0,0,0,260.32295429772796
2024-08-19 18:16:31,90,0,0,0,260.32295429772796
2024-08-19 18:16:32,90,0,0,0,260.32295429772796
2024-08-19 18:16:33,92,0,0,0,260.32295429772796
2024-08-19 18:16:34,92,0,0,0,260.32295429772796
2024-08-19 18:16:35,93,0,0,0,260.32295429772796
2024-08-19 18:16:36,92,0,0,0,260.32295429772796
2024-08-19 18:16:37,91,0,0,0,260.32295429772796
2024-08-19 18:16:38,91,0,0,0,260.32295429772796
2024-08-19 18:16:38,90,0,0,0,260.32295429772796
2024-08-19 18:16:39,90,0,0,0,260.32295429772796
2024-08-19 18:16:40,90,0,0,0,260.32295429772796
