timestamp,heart_rate,power,cadence,speed,distance
2024-08-17 12:09:41,104,0,32,5,5.281105695830451
2024-08-17 12:09:42,104,0,32,4,7.830097291204664
2024-08-17 12:09:43,102,0,32,4,10.04902131292555
2024-08-17 12:09:44,99,10,26,6,13.43232426908281
2024-08-17 12:09:45,98,10,26,12,20.536715748575
2024-08-17 12:09:46,98,176,32,17,30.46881977584627
2024-08-17 12:09:47,98,173,40,21,42.42743535836538
2024-08-17 12:09:48,99,147,56,23,54.718156588739824
2024-08-17 12:09:49,107,109,62,24,67.92679142091009
2024-08-17 12:09:50,111,96,68,24,81.68141328427527
2024-08-17 12:09:51,112,97,68,25,95.50932013127539
2024-08-17 12:09:52,113,87,69,25,109.51414683924781
2024-08-17 12:09:53,113,84,69,25,122.90178288883634
2024-08-17 12:09:54,114,88,70,25,136.9867529279656
2024-08-17 12:09:55,115,97,70,25,150.98634443746676
2024-08-17 12:09:56,116,96,71,25,165.21162604557148
2024-08-17 12:09:57,117,96,72,25,179.6629369133049
2024-08-17 12:09:58,117,83,71,25,193.56520700189805
2024-08-17 12:09:59,117,73,70,25,207.6020346356763
2024-08-17 12:10:00,117,68,70,25,221.65223772062197
2024-08-17 12:10:01,117,71,69,24,235.49652404851386
2024-08-17 12:10:02,117,76,69,24,249.10427759289746
2024-08-17 12:10:03,117,71,68,24,262.6289018809796
2024-08-17 12:10:04,118,68,67,24,275.30579067534876
2024-08-17 12:10:05,118,73,66,23,288.58061240182985
2024-08-17 12:10:06,119,74,65,23,301.69652603401084
2024-08-17 12:10:07,118,76,65,23,314.85708957844315
2024-08-17 12:10:07,118,71,65,23,327.2775765584575
2024-08-17 12:10:08,118,71,65,22,339.4854046987163
2024-08-17 12:10:09,118,21,56,20,350.89661863313785
2024-08-17 12:10:10,118,4,64,18,361.1983223193222
2024-08-17 12:10:11,117,3,72,16,370.1903603679604
2024-08-17 12:10:12,117,1,64,14,378.3266182919344
2024-08-17 12:10:13,117,1,64,13,385.5127080308067
2024-08-17 12:10:14,116,1,56,11,391.8415979332395
2024-08-17 12:10:15,116,1,56,10,397.8573699580299
2024-08-17 12:10:16,116,8,45,11,404.3634176201291
2024-08-17 12:10:17,116,80,39,14,411.85306936370006
2024-08-17 12:10:18,116,80,39,15,420.51500310368016
2024-08-17 12:10:19,116,79,38,16,429.92891681459224
2024-08-17 12:10:20,116,69,45,17,439.6168323291674
2024-08-17 12:10:21,116,73,48,18,449.4513701995215
2024-08-17 12:10:22,116,56,49,18,459.4765742222469
2024-08-17 12:10:23,116,56,49,18,469.95273432731636
2024-08-17 12:10:24,115,83,51,19,480.860850262642
2024-08-17 12:10:25,114,74,53,20,491.86004912853247
2024-08-17 12:10:26,114,73,55,20,503.18888608349704
2024-08-17 12:10:27,114,73,56,20,514.2960597607826
2024-08-17 12:10:28,114,83,57,21,525.8661152912512
2024-08-17 12:10:29,114,68,58,21,537.5757535391385
2024-08-17 12:10:30,115,67,58,21,549.3491355770166
2024-08-17 12:10:31,115,65,58,21,560.6743475536507
2024-08-17 12:10:32,115,68,58,21,572.777943668763
2024-08-17 12:10:33,115,62,58,21,583.8660075843336
2024-08-17 12:10:34,115,64,58,20,595.3491420050465
2024-08-17 12:10:35,115,73,58,21,607.384385568566
2024-08-17 12:10:36,115,74,58,21,619.1793999195102
2024-08-17 12:10:37,115,71,59,21,630.5978132804238
2024-08-17 12:10:38,115,72,59,21,642.4056221206986
2024-08-17 12:10:39,115,77,60,21,654.5356910665832
2024-08-17 12:10:40,115,91,60,22,666.9225692497362
2024-08-17 12:10:41,115,85,61,22,679.4265958931713
2024-08-17 12:10:42,115,74,62,22,691.5307200815945
2024-08-17 12:10:43,115,74,62,22,704.0912479241691
2024-08-17 12:10:44,115,71,62,22,716.4381649308737
2024-08-17 12:10:45,115,68,62,22,729.2749657114349
2024-08-17 12:10:46,115,70,62,22,741.2022310217224
2024-08-17 12:10:47,115,66,62,22,753.4243193070096
2024-08-17 12:10:48,115,65,61,22,765.6287621458374
2024-08-17 12:10:49,114,77,62,22,778.1353219727679
2024-08-17 12:10:50,114,90,62,22,790.7538584848248
2024-08-17 12:10:51,113,81,63,22,802.9606244345509
2024-08-17 12:10:52,113,90,63,23,816.2353866199657
2024-08-17 12:10:53,113,54,64,22,828.0424161732201
2024-08-17 12:10:54,113,10,60,20,839.5295369837024
2024-08-17 12:10:55,112,6,65,18,849.8622471902111
2024-08-17 12:10:56,112,4,67,16,859.2915179034079
2024-08-17 12:10:56,111,2,70,15,867.6140190382803
2024-08-17 12:10:57,107,66,56,16,876.8056187735667
2024-08-17 12:10:58,104,66,56,18,887.0715575112241
2024-08-17 12:10:59,103,106,51,19,898.1070414755084
2024-08-17 12:11:00,103,91,49,20,909.1822942468859
2024-08-17 12:11:01,103,87,55,21,920.761738748021
2024-08-17 12:11:02,104,70,57,21,932.5588747766287
2024-08-17 12:11:03,106,68,58,21,944.357836416033
2024-08-17 12:11:04,108,69,58,21,956.2260228388844
2024-08-17 12:11:05,109,75,59,21,967.5949343966118
2024-08-17 12:11:06,110,82,59,21,979.5781177646589
2024-08-17 12:11:07,111,75,60,22,991.9233583543041
2024-08-17 12:11:08,111,98,62,23,1004.8284357521275
2024-08-17 12:11:09,113,225,66,26,1019.7043825639624
2024-08-17 12:11:10,114,12,76,26,1034.5053711255396
2024-08-17 12:11:11,114,10,86,24,1047.4603928016295
2024-08-17 12:11:12,114,8,92,22,1060.101487424639
2024-08-17 12:11:13,113,7,87,20,1071.4754914283758
2024-08-17 12:11:14,111,6,81,18,1081.7695761309735
