timestamp,heart_rate,power,cadence,speed,distance
2024-08-30 18:04:01,122,66,53,21,3.9687150955200194
2024-08-30 18:04:02,121,63,52,21,9.552609214517805
2024-08-30 18:04:03,120,61,52,21,15.181889220078785
