timestamp,heart_rate,power,cadence,speed,distance
2024-08-31 14:33:43,101,50,47,17,3.4855468153953555
2024-08-31 14:33:44,102,47,47,17,8.234680600961049
2024-08-31 14:33:45,103,51,47,17,12.638940311140484
2024-08-31 14:33:46,104,56,47,17,17.31311709947056
2024-08-31 14:33:47,104,56,47,17,22.20161068903075
2024-08-31 14:33:48,105,56,47,17,27.073470046122864
2024-08-31 14:33:49,106,59,48,17,32.0785649716854
2024-08-31 14:33:50,106,60,49,18,37.08494355082511
2024-08-31 14:33:51,107,59,50,18,41.82938817938168
2024-08-31 14:33:52,107,59,50,18,46.816682743363906
2024-08-31 14:33:53,109,56,51,18,51.807873292101746
2024-08-31 14:33:54,110,56,51,18,57.055411573913354
2024-08-31 14:33:55,112,62,51,18,61.97155232098366
2024-08-31 14:33:56,115,61,51,18,67.0646714720461
2024-08-31 14:33:57,117,50,51,18,72.16851786308817
2024-08-31 14:33:58,117,50,51,17,77.10653335783215
2024-08-31 14:33:59,118,34,50,17,81.98151090873611
2024-08-31 14:34:00,119,40,49,17,86.41880323025914
2024-08-31 14:34:01,120,49,48,17,91.06477113101217
2024-08-31 14:34:02,120,50,48,17,95.79075180623265
2024-08-31 14:34:03,120,50,48,17,100.646608717574
2024-08-31 14:34:04,119,56,47,17,105.55255502528613
2024-08-31 14:34:05,120,57,48,17,110.5952543305026
2024-08-31 14:34:06,120,55,48,17,115.03819884657858
2024-08-31 14:34:06,119,47,49,17,119.75009191168678
2024-08-31 14:34:08,120,47,49,17,124.70648308197656
2024-08-31 14:34:08,120,47,49,17,129.50716205570433
2024-08-31 14:34:09,120,51,48,17,134.00517612828148
2024-08-31 14:34:10,120,52,48,17,138.7479404648145
2024-08-31 14:34:11,120,52,48,17,143.6417210790846
2024-08-31 14:34:12,120,51,48,17,148.4567913810412
2024-08-31 14:34:13,119,51,48,17,153.35671321551004
2024-08-31 14:34:14,119,53,48,17,157.85528016090393
2024-08-31 14:34:15,119,66,49,18,162.82635282675426
2024-08-31 14:34:16,119,60,50,18,167.878142229716
2024-08-31 14:34:17,119,60,50,18,172.9970534198814
2024-08-31 14:34:18,119,53,50,18,178.10897570384876
2024-08-31 14:34:19,119,53,50,18,182.75969560146333
2024-08-31 14:34:20,120,56,50,18,187.71839529938168
2024-08-31 14:34:21,120,53,50,18,192.824479467339
2024-08-31 14:34:22,119,55,51,18,197.93215261565314
2024-08-31 14:34:23,120,55,51,18,203.02140683862896
2024-08-31 14:34:24,120,64,51,18,207.76711638900966
2024-08-31 14:34:25,121,55,51,18,212.88765574428768
2024-08-31 14:34:26,121,56,51,18,218.0788573629326
2024-08-31 14:34:27,120,54,51,18,223.18395998676615
2024-08-31 14:34:28,120,50,51,18,228.3220838308334
2024-08-31 14:34:29,120,50,51,18,232.97183489865725
2024-08-31 14:34:30,120,53,51,18,237.98894239200484
2024-08-31 14:34:31,120,53,50,18,242.98994625343215
2024-08-31 14:34:32,120,51,50,18,248.03964412344826
2024-08-31 14:34:33,120,54,50,18,252.7058417651388
2024-08-31 14:34:34,120,54,50,17,257.5528402838442
2024-08-31 14:34:35,120,47,50,17,262.4422073238426
2024-08-31 14:34:36,120,51,49,17,267.39331360061965
2024-08-31 14:34:37,120,52,49,17,272.3523476925161
2024-08-31 14:34:38,120,53,49,17,277.2366241461701
2024-08-31 14:34:39,120,53,49,17,281.72656395170424
2024-08-31 14:34:40,120,47,49,17,286.53981835577224
2024-08-31 14:34:41,120,49,48,17,291.84013927115336
2024-08-31 14:34:42,119,46,48,17,296.1611044658555
2024-08-31 14:34:43,119,49,48,17,300.97285024987326
2024-08-31 14:34:44,119,49,48,17,305.2791867984666
2024-08-31 14:34:45,119,51,48,17,310.1085827814208
2024-08-31 14:34:46,119,51,48,17,314.88769683705436
2024-08-31 14:34:47,119,59,48,17,319.8027176962959
