timestamp,heart_rate,power,cadence,speed,distance
2024-09-23 18:42:52,97,120,13,14,0.480565407541063
2024-09-23 18:42:53,97,7,26,12,4.32207604514228
2024-09-23 18:42:54,97,0,40,10,7.038632025983599
2024-09-23 18:42:55,97,0,40,9,9.608104442225564
2024-09-23 18:42:55,97,0,40,7,11.583502710527846
2024-09-23 18:42:56,97,0,40,6,13.281737584537932
2024-09-23 18:42:57,97,0,40,6,14.950342192914754
2024-09-23 18:42:58,96,14,30,8,17.300302653180232
2024-09-23 18:42:59,97,14,30,14,21.20832368731499
2024-09-23 18:43:00,99,137,30,17,26.329706249634427
2024-09-23 18:43:01,99,84,31,18,30.886391538381577
2024-09-23 18:43:02,100,52,44,18,36.016321017344794
2024-09-23 18:43:03,101,52,44,18,41.30209186077118
2024-09-23 18:43:04,101,69,49,18,46.40854183899032
2024-09-23 18:43:05,101,59,54,18,51.44042552378443
2024-09-23 18:43:06,102,59,54,16,55.54483220908377
2024-09-23 18:43:07,103,10,48,14,59.58631983465619
2024-09-23 18:43:08,102,0,49,12,63.49764338201947
2024-09-23 18:43:09,102,0,45,11,66.04563282198376
2024-09-23 18:43:10,101,0,45,9,68.6175123810768
2024-09-23 18:43:11,101,0,45,7,70.8370118578275
2024-09-23 18:43:12,100,0,45,6,72.65584726201163
2024-09-23 18:43:13,98,0,45,5,74.10080724689695
2024-09-23 18:43:14,94,0,45,3,75.23449259201685
2024-09-23 18:43:15,93,0,0,2,75.91932264169057
2024-09-23 18:43:16,92,0,0,2,76.60772752960523
2024-09-23 18:43:17,92,0,37,3,77.55506537954012
2024-09-23 18:43:18,92,0,37,10,80.4180240492026
2024-09-23 18:43:19,93,71,27,11,83.06951582696702
2024-09-23 18:43:20,95,71,27,10,85.94604438477091
2024-09-23 18:43:21,99,11,20,9,88.57935762339167
2024-09-23 18:43:22,100,11,20,10,91.45732545521523
2024-09-23 18:43:23,103,76,28,13,95.34098098741636
2024-09-23 18:43:24,104,89,36,16,99.37224871979818
2024-09-23 18:43:25,105,89,36,17,104.06707537439132
2024-09-23 18:43:26,106,81,46,17,109.17637397117083
2024-09-23 18:43:27,106,61,54,17,114.01584262119397
2024-09-23 18:43:28,107,33,49,16,118.79325344628755
2024-09-23 18:43:29,108,1,51,14,122.82541273236272
2024-09-23 18:43:30,108,1,51,13,126.11224839091298
2024-09-23 18:43:31,108,0,48,11,129.29263560308348
2024-09-23 18:43:32,108,0,50,9,132.09226061370634
2024-09-23 18:43:33,108,0,50,8,134.16668201287584
2024-09-23 18:43:34,104,0,50,6,136.2138313233852
2024-09-23 18:43:35,103,0,36,5,137.68415678739544
2024-09-23 18:43:36,101,0,36,7,139.68557251691814
2024-09-23 18:43:37,101,0,36,11,142.87054646478754
2024-09-23 18:43:38,101,63,29,14,146.9411760144763
2024-09-23 18:43:39,102,95,31,16,151.33971649540788
2024-09-23 18:43:40,103,86,42,17,156.17498348289058
2024-09-23 18:43:41,103,66,52,17,161.15703188048462
2024-09-23 18:43:42,104,63,53,17,165.6458941512637
2024-09-23 18:43:43,105,63,53,16,170.27816589408442
2024-09-23 18:43:43,106,10,52,14,173.9851300319035
2024-09-23 18:43:44,107,0,51,13,177.6160699102613
2024-09-23 18:43:45,107,0,50,11,180.77773798174323
2024-09-23 18:43:47,107,0,50,9,183.76229663756152
2024-09-23 18:43:47,106,0,47,8,185.65357248054605
2024-09-23 18:43:48,105,0,47,7,187.76351149148405
2024-09-23 18:43:49,103,22,36,9,190.5761936883131
2024-09-23 18:43:50,102,22,36,14,194.45903919339173
2024-09-23 18:43:51,102,131,34,16,199.25409238338463
2024-09-23 18:43:52,102,90,41,18,204.13245267669353
2024-09-23 18:43:53,102,75,53,18,208.92970905635084
2024-09-23 18:43:54,103,73,57,19,214.10132158133712
2024-09-23 18:43:55,103,65,58,19,219.6036946806642
2024-09-23 18:43:56,104,63,60,19,224.87606741719767
2024-09-23 18:43:57,106,64,60,19,230.3074563437037
2024-09-23 18:43:58,106,59,59,19,235.19022473692885
2024-09-23 18:43:59,106,58,60,19,240.58959800667225
2024-09-23 18:44:00,106,38,54,18,245.7644480797979
2024-09-23 18:44:01,106,2,59,16,250.45310667753213
2024-09-23 18:44:02,107,1,57,15,254.6333158373832
2024-09-23 18:44:03,106,1,57,13,258.3206444938977
2024-09-23 18:44:04,106,0,60,11,261.54486098488167
2024-09-23 18:44:05,106,0,60,11,264.3956391506724
2024-09-23 18:44:06,105,20,44,13,268.2045930478307
2024-09-23 18:44:07,105,132,42,16,272.5570146077208
2024-09-23 18:44:08,105,102,45,18,277.7425903942849
2024-09-23 18:44:09,105,87,56,19,283.6011639383103
2024-09-23 18:44:10,107,73,61,20,288.7505439645713
2024-09-23 18:44:11,109,62,61,19,293.66485729085065
2024-09-23 18:44:12,113,9,57,18,298.7184482249948
2024-09-23 18:44:13,114,2,57,16,303.1275900814268
2024-09-23 18:44:14,116,1,55,14,307.14792671269834
2024-09-23 18:44:15,116,1,55,12,310.7744241747591
2024-09-23 18:44:16,115,0,49,11,313.55035503506656
2024-09-23 18:44:17,114,0,49,9,316.18663961158853
2024-09-23 18:44:18,113,0,38,8,318.4048224932617
2024-09-23 18:44:19,111,0,38,6,320.1900918854607
2024-09-23 18:44:20,110,0,38,5,321.65612688793067
2024-09-23 18:44:21,108,0,38,4,322.77282470398467
2024-09-23 18:44:22,108,0,38,2,323.49959571493986
2024-09-23 18:44:23,107,0,38,1,324.02466656102064
2024-09-23 18:44:24,107,0,0,0,324.29937971366763
2024-09-23 18:44:25,106,0,0,0,324.43687245978236
2024-09-23 18:44:26,106,0,0,0,324.50688155359677
2024-09-23 18:44:27,106,0,0,0,324.50688155359677
2024-09-23 18:44:28,105,0,0,0,324.50688155359677
2024-09-23 18:44:29,105,0,0,0,324.50688155359677
2024-09-23 18:44:30,105,0,0,0,324.50688155359677
2024-09-23 18:44:31,104,0,0,0,324.58754312594715
2024-09-23 18:44:31,104,0,0,0,324.7075572848318
2024-09-23 18:44:32,103,0,0,0,324.8909380435942
2024-09-23 18:44:33,103,7,22,1,325.3961944341658
2024-09-23 18:44:34,104,7,22,11,328.49913347959506
2024-09-23 18:44:35,104,94,25,13,332.20056576066537
2024-09-23 18:44:36,104,94,25,12,335.417472016149
2024-09-23 18:44:37,105,27,23,11,338.570170867443
2024-09-23 18:44:38,104,27,23,9,341.20802277061665
2024-09-23 18:44:39,104,0,32,8,343.55938986274924
2024-09-23 18:44:40,105,0,32,9,346.0092309713363
2024-09-23 18:44:41,105,63,29,12,349.5280154724915
2024-09-23 18:44:42,105,63,29,15,353.80569024019763
2024-09-23 18:44:43,105,101,37,17,358.62664912607926
2024-09-23 18:44:44,106,98,45,18,363.9279426422383
2024-09-23 18:44:45,106,82,55,19,368.8015958176718
2024-09-23 18:44:46,107,85,59,20,374.39055159489305
2024-09-23 18:44:47,108,80,61,20,379.98194562660314
2024-09-23 18:44:48,108,78,63,20,385.7929069923029
2024-09-23 18:44:49,108,62,65,20,391.7631631884309
2024-09-23 18:44:50,109,72,65,20,397.4411793980332
2024-09-23 18:44:51,109,63,64,20,403.25561442573854
2024-09-23 18:44:52,109,59,64,20,408.45459490021057
2024-09-23 18:44:53,109,74,65,20,415.0129139390255
2024-09-23 18:44:54,109,81,64,21,420.75477399494895
2024-09-23 18:44:55,109,62,65,21,425.61234128144037
2024-09-23 18:44:56,110,63,65,21,431.45201809869855
2024-09-23 18:44:57,110,58,65,20,437.08394231067746
2024-09-23 18:44:58,110,57,65,20,442.46949837274
2024-09-23 18:44:59,110,31,58,19,448.09853057397714
2024-09-23 18:45:00,110,31,58,17,452.57437628838727
2024-09-23 18:45:01,110,14,51,17,457.4333052496113
2024-09-23 18:45:02,110,59,48,17,462.8644395093121
2024-09-23 18:45:03,109,61,52,18,467.89497792919457
2024-09-23 18:45:04,109,64,56,18,472.13794307774947
2024-09-23 18:45:05,108,74,57,19,477.3066135399869
2024-09-23 18:45:06,108,80,58,19,482.76513142718187
2024-09-23 18:45:07,107,69,60,20,488.34961295790123
2024-09-23 18:45:08,107,77,61,20,494.1557589683266
2024-09-23 18:45:09,107,74,63,20,499.3441615018578
2024-09-23 18:45:10,108,71,63,20,504.96981593436647
2024-09-23 18:45:11,109,60,64,20,510.6878118574617
2024-09-23 18:45:12,109,53,63,20,516.4705666495692
2024-09-23 18:45:13,109,50,62,19,521.7268355866271
2024-09-23 18:45:14,109,13,56,17,527.1669767187699
2024-09-23 18:45:15,109,2,58,16,530.7376980059674
2024-09-23 18:45:16,108,24,56,15,535.1102048085793
2024-09-23 18:45:17,107,84,58,16,539.8015702161522
2024-09-23 18:45:18,106,85,54,18,545.3201678547592
2024-09-23 18:45:18,107,85,54,18,549.6689275854162
2024-09-23 18:45:19,106,83,60,19,555.004672425323
2024-09-23 18:45:20,107,81,62,20,560.7959889703326
2024-09-23 18:45:21,108,77,63,20,566.5633999804655
2024-09-23 18:45:22,109,62,64,20,572.3553165793419
2024-09-23 18:45:23,109,66,64,20,577.991634711292
2024-09-23 18:45:24,110,69,65,20,583.781290873554
2024-09-23 18:45:25,110,63,64,20,589.1254760669337
2024-09-23 18:45:26,110,55,64,20,594.3984786199198
2024-09-23 18:45:27,109,50,63,20,600.9726828422811
2024-09-23 18:45:28,108,57,62,19,605.3883381459448
2024-09-23 18:45:29,107,42,63,19,610.6079217367702
2024-09-23 18:45:30,107,48,60,18,615.8602574043804
2024-09-23 18:45:31,107,48,59,18,621.0183792048031
2024-09-23 18:45:32,107,48,59,17,625.9112314158016
2024-09-23 18:45:33,107,8,49,15,630.0750026729372
2024-09-23 18:45:34,107,1,49,13,633.5742968089052
2024-09-23 18:45:35,107,1,49,11,636.8044564161037
2024-09-23 18:45:36,107,1,49,10,639.7457747552131
2024-09-23 18:45:37,108,0,37,8,642.128846760591
2024-09-23 18:45:38,109,0,37,7,644.1732892553014
2024-09-23 18:45:39,109,0,37,6,645.8403807044032
2024-09-23 18:45:40,108,0,37,4,647.1564524968468
2024-09-23 18:45:41,108,0,37,3,648.0417444745702
2024-09-23 18:45:42,108,0,37,2,648.7304873506231
2024-09-23 18:45:43,106,0,0,1,649.1184750417871
2024-09-23 18:45:44,106,0,0,0,649.3632468839489
2024-09-23 18:45:45,105,0,0,0,649.5178010523322
2024-09-23 18:45:46,104,0,0,0,649.5178010523322
2024-09-23 18:45:47,103,0,0,0,649.5178010523322
2024-09-23 18:45:48,101,0,0,0,649.5178010523322
2024-09-23 18:45:49,100,0,0,0,649.5178010523322
2024-09-23 18:45:50,98,0,0,0,649.5178010523322
2024-09-23 18:45:51,98,0,0,0,649.5178010523322
2024-09-23 18:45:52,97,0,0,0,649.5178010523322
2024-09-23 18:45:53,96,0,0,4,650.5794888529515
2024-09-23 18:45:54,95,0,26,7,652.5497075888848
2024-09-23 18:45:55,93,0,26,10,655.4611358867753
2024-09-23 18:45:56,94,73,18,14,659.3755978372363
2024-09-23 18:45:57,94,104,29,15,663.4830832362177
2024-09-23 18:45:58,94,82,44,17,668.0881704105273
2024-09-23 18:45:59,94,61,52,16,672.803172756566
2024-09-23 18:46:00,95,61,52,15,677.1864747378562
2024-09-23 18:46:01,99,13,46,14,681.0762203441726
2024-09-23 18:46:02,100,0,46,12,684.5730658041107
2024-09-23 18:46:03,101,0,43,10,687.4800764719646
2024-09-23 18:46:04,101,0,43,11,690.3097194300758
2024-09-23 18:46:05,102,83,40,13,694.1812186956406
2024-09-23 18:46:06,102,83,40,17,699.0154370387396
2024-09-23 18:46:06,103,123,42,18,703.7513438006243
2024-09-23 18:46:07,103,82,49,19,709.1859014140236
2024-09-23 18:46:08,103,84,62,20,714.6317743725248
2024-09-23 18:46:09,103,74,63,20,720.2187755770154
2024-09-23 18:46:10,104,75,64,20,726.1611874765821
2024-09-23 18:46:11,104,79,65,21,731.613607023822
2024-09-23 18:46:12,105,89,67,21,737.6849833044743
2024-09-23 18:46:13,105,122,66,22,743.9007657680248
2024-09-23 18:46:14,104,103,66,23,750.496180727747
2024-09-23 18:46:15,103,79,65,23,757.1196835087408
2024-09-23 18:46:16,103,74,66,23,763.0576509508824
2024-09-23 18:46:17,103,71,65,23,769.7671457429728
2024-09-23 18:46:18,103,75,65,23,776.1631840262149
2024-09-23 18:46:19,103,92,66,24,782.8676985912854
2024-09-23 18:46:20,102,127,69,24,789.9624458803072
2024-09-23 18:46:21,102,155,71,26,796.5407176368767
2024-09-23 18:46:22,103,139,74,27,803.9835011621317
2024-09-23 18:46:23,104,126,76,28,811.8394925296308
2024-09-23 18:46:24,105,111,79,28,819.8138986859058
2024-09-23 18:46:25,106,90,78,28,827.8031396845978
2024-09-23 18:46:26,107,151,77,29,835.1611214247016
2024-09-23 18:46:27,109,162,76,30,843.6327160762418
2024-09-23 18:46:28,110,175,75,31,853.1888541102411
2024-09-23 18:46:29,110,159,78,32,862.1626912845508
2024-09-23 18:46:30,111,156,80,33,869.748485031393
2024-09-23 18:46:31,111,132,81,33,878.8268211033611
2024-09-23 18:46:32,111,120,82,33,888.1754507369467
2024-09-23 18:46:33,112,116,82,33,897.4613282442094
2024-09-23 18:46:34,114,108,82,33,906.9228012800218
2024-09-23 18:46:35,114,108,81,32,915.1818577799534
2024-09-23 18:46:36,114,108,80,32,924.0508034282262
2024-09-23 18:46:37,114,106,80,32,933.0789817730588
2024-09-23 18:46:38,114,136,79,32,942.1374876121682
2024-09-23 18:46:39,114,119,79,32,951.1924528002742
2024-09-23 18:46:40,113,38,74,31,959.2135695099834
2024-09-23 18:46:41,113,12,99,29,967.90705612633
2024-09-23 18:46:42,113,10,111,26,974.8394426597492
2024-09-23 18:46:43,113,9,101,24,981.7175106088323
2024-09-23 18:46:44,113,8,99,22,987.4278530955318
2024-09-23 18:46:45,112,11,82,20,993.2342569708827
2024-09-23 18:46:46,110,6,76,18,998.3673176242248
2024-09-23 18:46:47,108,4,66,17,1003.1146189047233
2024-09-23 18:46:48,107,3,71,15,1007.3595666958229
2024-09-23 18:46:49,106,2,63,13,1011.1296261701322
2024-09-23 18:46:50,106,1,59,12,1014.6156541658775
2024-09-23 18:46:51,106,1,59,14,1018.1773586849374
2024-09-23 18:46:52,107,114,49,18,1023.3703878535167
2024-09-23 18:46:53,107,175,48,22,1029.4870166328221
2024-09-23 18:46:54,108,137,49,23,1036.091693401337
2024-09-23 18:46:55,109,138,57,25,1043.8136990904811
2024-09-23 18:46:55,112,135,61,26,1049.7115975141528
2024-09-23 18:46:56,115,127,64,27,1057.3187480370207
2024-09-23 18:46:57,117,136,66,28,1065.149443613821
2024-09-23 18:46:59,119,121,69,28,1073.947335300181
2024-09-23 18:46:59,120,124,71,29,1080.426489298874
2024-09-23 18:47:00,121,123,72,29,1088.6593399167066
2024-09-23 18:47:01,122,120,72,29,1097.8409131487215
2024-09-23 18:47:02,122,113,73,30,1105.328259842926
2024-09-23 18:47:03,123,120,74,30,1113.6878255354036
2024-09-23 18:47:04,123,108,74,30,1121.240262865358
2024-09-23 18:47:05,124,109,74,30,1129.6535689108903
2024-09-23 18:47:06,123,117,74,30,1138.0893452545008
2024-09-23 18:47:07,122,115,74,30,1147.4262804786365
2024-09-23 18:47:08,123,116,75,30,1155.11601834827
2024-09-23 18:47:09,122,112,75,30,1162.8250852180852
2024-09-23 18:47:10,122,119,75,30,1171.394606480996
2024-09-23 18:47:11,122,110,75,30,1180.8525749742985
2024-09-23 18:47:12,122,111,75,30,1188.5744836429756
2024-09-23 18:47:13,122,103,75,30,1197.9878881394864
2024-09-23 18:47:14,122,104,74,30,1205.6646806392405
2024-09-23 18:47:15,122,100,74,30,1213.282487216923
2024-09-23 18:47:16,122,105,73,30,1221.7464937594202
2024-09-23 18:47:17,122,131,75,30,1230.29049623145
2024-09-23 18:47:18,122,109,76,30,1238.8872122360601
2024-09-23 18:47:19,122,95,74,30,1246.5996155016953
2024-09-23 18:47:20,122,148,73,31,1255.0649520973366
2024-09-23 18:47:21,122,105,85,31,1264.9012841383617
2024-09-23 18:47:22,122,102,82,31,1272.7552527321711
2024-09-23 18:47:23,122,201,81,32,1282.6097400950064
2024-09-23 18:47:24,122,184,69,33,1290.0906529340482
2024-09-23 18:47:25,122,170,72,34,1299.723904114962
2024-09-23 18:47:26,122,172,74,35,1311.5481768866382
2024-09-23 18:47:27,122,179,76,36,1319.63399654958
2024-09-23 18:47:28,124,182,77,37,1329.9607426093685
2024-09-23 18:47:29,125,192,79,37,1339.440480409066
2024-09-23 18:47:30,126,159,81,38,1350.1147779564062
2024-09-23 18:47:31,127,154,81,38,1361.1022519595092
2024-09-23 18:47:32,127,156,82,38,1372.6775908980103
2024-09-23 18:47:33,127,156,82,38,1381.2861473540463
2024-09-23 18:47:34,127,139,82,38,1393.14808725516
2024-09-23 18:47:35,127,131,82,38,1402.791735818651
2024-09-23 18:47:36,127,122,81,38,1415.5305795616573
2024-09-23 18:47:37,127,131,81,37,1423.972011263503
2024-09-23 18:47:38,127,139,80,37,1434.4708649271065
2024-09-23 18:47:39,127,129,79,37,1443.8976616495186
2024-09-23 18:47:40,127,129,80,37,1455.3505575491322
2024-09-23 18:47:41,127,124,79,37,1464.6867504325178
2024-09-23 18:47:42,127,117,78,36,1474.899572814173
2024-09-23 18:47:43,127,104,77,36,1486.01115087933
2024-09-23 18:47:44,127,105,76,35,1494.9684163775707
2024-09-23 18:47:45,127,108,75,35,1504.7959692153665
2024-09-23 18:47:45,127,121,75,35,1513.5720726741683
2024-09-23 18:47:46,127,114,74,34,1523.2732268836762
2024-09-23 18:47:48,127,109,73,34,1533.822193068928
2024-09-23 18:47:48,127,119,73,34,1541.4637955493397
2024-09-23 18:47:49,127,127,73,34,1551.958952324258
2024-09-23 18:47:50,127,129,72,34,1560.5451542602646
2024-09-23 18:47:51,127,116,72,34,1570.0630398723815
2024-09-23 18:47:52,128,114,72,34,1578.5774811413553
2024-09-23 18:47:53,128,130,72,34,1588.0460179938211
2024-09-23 18:47:54,127,147,72,34,1598.5479615277716
2024-09-23 18:47:55,128,141,73,34,1607.208027685351
2024-09-23 18:47:56,128,140,73,34,1616.8876680009896
2024-09-23 18:47:57,128,154,73,35,1625.6954296237893
2024-09-23 18:47:58,128,149,75,35,1635.5769707646637
2024-09-23 18:47:59,129,140,75,35,1645.5096291349996
2024-09-23 18:48:00,130,129,76,35,1655.4524193134575
2024-09-23 18:48:01,130,130,76,35,1665.3774903025894
2024-09-23 18:48:02,130,108,75,35,1674.2574700719783
2024-09-23 18:48:03,130,144,75,35,1684.166272921695
2024-09-23 18:48:04,130,160,76,36,1694.240577684509
2024-09-23 18:48:05,130,145,77,36,1704.40748916732
2024-09-23 18:48:06,131,154,77,36,1714.6149849560531
2024-09-23 18:48:07,131,142,78,36,1723.860960672962
2024-09-23 18:48:08,132,121,78,36,1734.1386781440847
2024-09-23 18:48:09,132,117,77,36,1744.0368227071237
2024-09-23 18:48:10,132,118,77,36,1754.3732883214955
2024-09-23 18:48:11,132,122,77,36,1763.3733877334334
2024-09-23 18:48:12,132,124,76,35,1773.3047439343404
2024-09-23 18:48:13,132,128,76,35,1783.2283946202865
2024-09-23 18:48:14,133,125,75,35,1793.1018264856607
2024-09-23 18:48:15,133,130,75,35,1802.9830532239546
2024-09-23 18:48:16,133,126,76,35,1811.8962171773119
2024-09-23 18:48:17,133,164,76,35,1821.83644171887
2024-09-23 18:48:18,133,156,76,36,1831.868313796653
2024-09-23 18:48:19,133,15,97,34,1841.5559429122345
2024-09-23 18:48:20,133,16,135,32,1850.6806225240234
2024-09-23 18:48:21,133,15,125,30,1859.1659945891968
2024-09-23 18:48:22,133,13,115,28,1866.3000943389209
2024-09-23 18:48:23,133,13,110,26,1873.6142962482245
2024-09-23 18:48:24,131,11,100,24,1880.3645221630736
2024-09-23 18:48:25,130,10,96,22,1886.5733977609214
2024-09-23 18:48:26,127,9,92,21,1891.9434745755464
2024-09-23 18:48:27,126,109,75,23,1898.342004825672
2024-09-23 18:48:28,125,185,62,25,1905.51890000701
2024-09-23 18:48:29,125,165,53,27,1913.1948326687022
2024-09-23 18:48:30,126,153,58,28,1922.0288221796359
2024-09-23 18:48:30,127,143,61,29,1928.6635342319812
2024-09-23 18:48:32,128,136,63,30,1937.9876115103568
2024-09-23 18:48:33,129,126,64,30,1946.5882813910648
2024-09-23 18:48:33,130,130,65,31,1954.4346010810805
2024-09-23 18:48:34,130,134,66,31,1963.270600262616
2024-09-23 18:48:35,130,151,67,32,1971.4205959757176
2024-09-23 18:48:36,131,166,70,33,1980.7344848646064
2024-09-23 18:48:37,131,160,72,34,1990.2498349282482
2024-09-23 18:48:38,132,140,73,34,2000.8699601372089
2024-09-23 18:48:39,133,154,73,35,2010.647324530284
2024-09-23 18:48:40,133,165,76,35,2018.6191698127327
2024-09-23 18:48:41,133,154,76,36,2028.740014065637
2024-09-23 18:48:42,133,138,77,36,2038.8978254185788
2024-09-23 18:48:43,133,132,77,36,2049.050353135666
2024-09-23 18:48:44,133,129,77,36,2059.182073876593
2024-09-23 18:48:45,133,125,76,36,2069.2196371687787
2024-09-23 18:48:46,133,123,76,36,2078.2426315420207
2024-09-23 18:48:47,133,124,76,35,2089.1900288475886
2024-09-23 18:48:48,133,119,76,35,2098.1198469003043
2024-09-23 18:48:49,133,121,75,35,2106.9764667914974
2024-09-23 18:48:50,133,116,74,35,2116.794396463368
2024-09-23 18:48:51,134,132,75,35,2126.5858995782005
2024-09-23 18:48:52,133,137,74,35,2136.4056444830367
2024-09-23 18:48:53,134,133,75,35,2145.785145646996
2024-09-23 18:48:54,133,124,75,35,2155.146375411087
2024-09-23 18:48:55,133,105,74,35,2164.900467971961
2024-09-23 18:48:56,133,109,74,34,2175.539419515928
2024-09-23 18:48:57,133,130,74,34,2184.2252579053247
2024-09-23 18:48:58,133,120,74,34,2193.8357372370037
2024-09-23 18:48:59,134,107,73,34,2202.431891906924
2024-09-23 18:49:00,134,113,72,34,2211.911293318537
2024-09-23 18:49:01,134,127,72,34,2222.2845752146513
2024-09-23 18:49:02,134,117,72,33,2230.791485004955
2024-09-23 18:49:03,134,124,71,33,2239.726848444674
2024-09-23 18:49:04,134,119,72,33,2250.518058623208
2024-09-23 18:49:05,134,123,72,33,2258.0265719546214
2024-09-23 18:49:06,134,113,71,33,2267.354245637523
2024-09-23 18:49:07,133,117,70,33,2276.169346386857
2024-09-23 18:49:08,133,15,89,32,2285.5479274736513
2024-09-23 18:49:09,133,14,104,30,2293.1175572832426
2024-09-23 18:49:10,133,37,112,29,2301.208323278692
2024-09-23 18:49:11,133,88,88,28,2309.221384229925
2024-09-23 18:49:12,133,112,70,29,2317.3166007359823
2024-09-23 18:49:13,133,122,62,29,2325.5836726658877
2024-09-23 18:49:14,132,134,62,30,2333.1292249335183
2024-09-23 18:49:15,132,123,64,30,2341.615109425121
2024-09-23 18:49:16,131,119,64,30,2350.1761940015685
2024-09-23 18:49:17,130,126,65,31,2358.8008514020175
2024-09-23 18:49:18,130,78,63,30,2367.368537378311
2024-09-23 18:49:18,130,78,63,29,2374.820951851209
2024-09-23 18:49:19,130,64,58,29,2382.9531123227544
2024-09-23 18:49:20,130,109,56,29,2391.1325495057636
2024-09-23 18:49:21,130,109,58,28,2399.136749487453
2024-09-23 18:49:22,130,12,79,27,2406.654152712557
2024-09-23 18:49:23,130,11,105,24,2412.891587528917
2024-09-23 18:49:24,129,30,86,23,2419.449284465445
2024-09-23 18:49:25,128,30,86,24,2426.1757292966045
2024-09-23 18:49:26,127,154,70,26,2433.417440853516
2024-09-23 18:49:27,127,147,56,26,2440.1045766161546
2024-09-23 18:49:28,127,74,56,27,2447.639919770426
2024-09-23 18:49:29,128,130,66,28,2455.4422922359568
2024-09-23 18:49:30,129,114,68,28,2464.174533353911
2024-09-23 18:49:31,130,102,70,28,2472.1610919137793
2024-09-23 18:49:32,130,113,71,28,2478.614569753408
2024-09-23 18:49:33,130,125,71,29,2486.7493940532204
2024-09-23 18:49:34,130,115,71,29,2494.9429370409907
2024-09-23 18:49:35,130,97,72,29,2503.147612900866
2024-09-23 18:49:36,130,116,72,29,2511.340843407975
2024-09-23 18:49:37,129,112,72,29,2518.7802410927084
2024-09-23 18:49:38,129,132,73,30,2527.9973346710203
2024-09-23 18:49:39,129,124,73,30,2535.6114231877855
2024-09-23 18:49:40,130,105,74,30,2544.1036439259847
2024-09-23 18:49:41,130,107,75,30,2552.5893695361083
2024-09-23 18:49:42,130,106,74,30,2560.2022743827765
2024-09-23 18:49:43,130,105,74,30,2568.648810658852
2024-09-23 18:49:44,130,107,74,30,2577.0966320097446
2024-09-23 18:49:45,130,111,75,30,2585.5491719570423
2024-09-23 18:49:46,130,111,74,30,2594.8804488903943
2024-09-23 18:49:47,130,106,74,30,2601.650862901078
2024-09-23 18:49:48,130,96,74,30,2610.8801624596117
2024-09-23 18:49:49,130,104,74,30,2618.4127195868227
2024-09-23 18:49:50,130,93,73,29,2626.7156423840256
2024-09-23 18:49:51,130,101,72,29,2635.7791189067893
2024-09-23 18:49:52,130,108,72,29,2642.390715405676
2024-09-23 18:49:53,130,116,72,29,2650.703791598479
2024-09-23 18:49:54,130,117,73,30,2659.879757386446
2024-09-23 18:49:55,129,103,73,29,2667.367053943872
2024-09-23 18:49:56,129,105,73,29,2676.5093169854745
2024-09-23 18:49:57,129,119,73,30,2683.2075885342224
2024-09-23 18:49:58,130,127,73,30,2691.6706544147596
2024-09-23 18:49:59,129,122,73,31,2700.319203994671
2024-09-23 18:50:00,129,193,71,32,2711.1234379589555
2024-09-23 18:50:01,129,159,69,33,2718.5148195644215
2024-09-23 18:50:02,130,156,71,33,2727.0005631327626
2024-09-23 18:50:03,130,158,72,34,2736.6165637910362
2024-09-23 18:50:04,131,146,73,35,2747.3064107967743
2024-09-23 18:50:05,132,143,74,35,2757.0972287105187
2024-09-23 18:50:05,133,147,75,35,2764.9936167783203
2024-09-23 18:50:07,133,153,75,35,2775.965624021159
2024-09-23 18:50:07,133,140,76,36,2784.9686746266148
2024-09-23 18:50:09,133,140,76,36,2796.0143738792995
2024-09-23 18:50:09,134,137,76,36,2805.3541092680553
2024-09-23 18:50:10,134,133,76,36,2814.1934905919757
2024-09-23 18:50:11,135,134,76,36,2824.2578487270403
2024-09-23 18:50:12,136,141,77,36,2834.3722495536003
2024-09-23 18:50:13,136,144,78,36,2844.50665071739
2024-09-23 18:50:14,136,136,77,36,2854.636378808153
2024-09-23 18:50:15,136,133,77,36,2863.769879524574
2024-09-23 18:50:16,137,160,77,36,2873.9433051096057
2024-09-23 18:50:17,137,146,78,36,2884.1754795299626
2024-09-23 18:50:18,138,134,78,36,2895.4608853843465
2024-09-23 18:50:19,139,127,78,36,2904.6238166391836
2024-09-23 18:50:20,139,142,77,36,2914.807434036333
2024-09-23 18:50:21,139,128,77,36,2924.986403260627
2024-09-23 18:50:22,139,144,77,36,2934.1539385735973
2024-09-23 18:50:23,139,142,78,36,2944.3844843725346
2024-09-23 18:50:24,139,147,78,37,2954.6695850948477
2024-09-23 18:50:25,139,134,78,37,2963.9542721496673
2024-09-23 18:50:26,139,139,78,37,2975.2642215940673
2024-09-23 18:50:27,138,156,78,37,2984.027099510695
2024-09-23 18:50:28,138,155,79,37,2994.9077819830827
2024-09-23 18:50:29,138,154,79,37,3005.3346744259184
2024-09-23 18:50:30,139,150,80,37,3014.7638685398615
2024-09-23 18:50:31,139,137,79,37,3026.3053064094634
2024-09-23 18:50:32,141,133,79,37,3035.7162062048897
2024-09-23 18:50:33,142,135,79,37,3046.1385278622292
2024-09-23 18:50:34,142,143,79,37,3056.532845238843
2024-09-23 18:50:35,143,132,79,37,3065.8575744960026
2024-09-23 18:50:36,143,133,79,37,3076.202456364365
2024-09-23 18:50:37,143,127,79,37,3087.537966375879
2024-09-23 18:50:38,143,131,78,36,3097.8224199646033
2024-09-23 18:50:39,143,131,78,36,3108.0730536176084
2024-09-23 18:50:40,142,133,78,36,3116.2505567921517
2024-09-23 18:50:41,142,135,78,36,3126.443613513309
2024-09-23 18:50:42,142,120,77,36,3136.6092451651875
2024-09-23 18:50:43,143,115,77,36,3146.6933453917486
2024-09-23 18:50:44,144,130,77,36,3155.7311728311893
2024-09-23 18:50:45,142,129,76,35,3166.6759417725916
2024-09-23 18:50:46,142,136,75,35,3175.6559236798003
2024-09-23 18:50:47,142,129,75,35,3185.6137412660632
2024-09-23 18:50:48,142,130,75,35,3196.5867896848235
2024-09-23 18:50:49,143,159,76,36,3204.6448127236613
2024-09-23 18:50:50,142,145,77,36,3214.8011361949957
2024-09-23 18:50:51,142,134,77,36,3224.9793531821815
2024-09-23 18:50:52,142,126,77,36,3235.109667206471
2024-09-23 18:50:53,142,124,77,36,3245.194196206992
2024-09-23 18:50:53,142,129,76,36,3254.228258014386
2024-09-23 18:50:54,143,151,77,36,3264.311565226315
2024-09-23 18:50:55,143,153,77,36,3274.4781732115466
2024-09-23 18:50:56,144,137,77,36,3284.676665204762
2024-09-23 18:50:57,144,128,77,36,3294.8635457932933
2024-09-23 18:50:58,144,147,78,36,3305.08696354495
2024-09-23 18:50:59,145,142,78,37,3314.082168112859
2024-09-23 18:51:00,145,127,78,37,3324.623191339438
2024-09-23 18:51:01,146,127,78,36,3334.8674427178153
2024-09-23 18:51:02,146,142,78,36,3345.106617220241
2024-09-23 18:51:03,146,130,78,36,3354.3077197949074
2024-09-23 18:51:04,147,126,78,36,3364.5069936911245
2024-09-23 18:51:05,147,127,76,36,3374.153557123076
2024-09-23 18:51:06,147,131,77,36,3385.7633925120012
2024-09-23 18:51:07,147,136,77,36,3394.855517719849
2024-09-23 18:51:08,147,138,77,36,3403.964547113575
2024-09-23 18:51:09,147,128,76,36,3414.0395309567425
2024-09-23 18:51:10,145,133,76,36,3424.1190064655384
2024-09-23 18:51:11,146,118,76,36,3434.0972954995077
2024-09-23 18:51:12,145,131,76,35,3445.0946232206265
2024-09-23 18:51:13,145,143,76,35,3453.0880257712442
2024-09-23 18:51:14,145,140,76,36,3463.1378752390515
2024-09-23 18:51:15,146,137,76,36,3473.222028897203
2024-09-23 18:51:16,146,141,77,36,3483.3768591145645
2024-09-23 18:51:17,146,174,77,36,3493.6416361073625
2024-09-23 18:51:18,146,138,78,37,3502.996376027661
2024-09-23 18:51:19,146,133,79,37,3513.3615355604197
2024-09-23 18:51:20,147,125,79,37,3523.690997574724
2024-09-23 18:51:21,147,132,78,36,3533.675175386002
2024-09-23 18:51:22,146,131,78,36,3543.13192475769
2024-09-23 18:51:23,146,123,77,36,3553.307733736433
2024-09-23 18:51:24,145,120,77,36,3563.404940886627
2024-09-23 18:51:25,145,131,77,36,3574.485376840827
2024-09-23 18:51:26,146,125,76,36,3583.5071344614003
2024-09-23 18:51:27,145,133,76,36,3592.517705741191
2024-09-23 18:51:28,145,132,76,36,3602.511164373819
2024-09-23 18:51:29,146,140,76,36,3612.5754565331645
2024-09-23 18:51:30,146,147,77,36,3622.6919603082843
2024-09-23 18:51:31,145,137,77,36,3632.855730387897
2024-09-23 18:51:32,145,127,77,36,3642.99129608207
2024-09-23 18:51:33,145,118,77,36,3651.7906523565425
2024-09-23 18:51:34,146,117,76,35,3661.9876850479154
2024-09-23 18:51:35,145,125,76,35,3671.657794064281
2024-09-23 18:51:36,146,124,75,35,3681.5464071028737
2024-09-23 18:51:37,145,147,75,35,3690.7315685742406
2024-09-23 18:51:38,145,137,76,35,3700.6743350340234
2024-09-23 18:51:39,145,136,76,35,3710.4229149712432
2024-09-23 18:51:40,145,157,76,36,3720.5688257641236
2024-09-23 18:51:41,146,183,77,36,3730.801426898106
2024-09-23 18:51:41,148,161,78,37,3740.4299005521643
2024-09-23 18:51:42,148,167,80,37,3750.716047093601
2024-09-23 18:51:43,149,175,82,38,3761.3625168760595
2024-09-23 18:51:44,149,162,82,38,3772.1600855429947
2024-09-23 18:51:45,149,182,82,39,3783.0711796601595
2024-09-23 18:51:46,149,169,82,39,3793.7961460789024
2024-09-23 18:51:47,149,148,84,39,3804.5411753329945
2024-09-23 18:51:48,149,159,85,39,3815.577607452205
2024-09-23 18:51:49,149,148,85,39,3826.9435736265427
2024-09-23 18:51:50,150,139,84,39,3837.732168889706
2024-09-23 18:51:51,150,134,84,39,3847.9081492192195
2024-09-23 18:51:52,150,132,83,39,3858.5839523732643
2024-09-23 18:51:53,150,153,83,39,3869.4591705818953
2024-09-23 18:51:54,150,148,83,39,3880.6531512008755
2024-09-23 18:51:55,150,172,83,39,3891.3706443256783
2024-09-23 18:51:56,150,141,83,39,3901.571359325778
2024-09-23 18:51:57,150,172,84,39,3912.3378888659986
2024-09-23 18:51:58,150,165,84,40,3923.727315448388
2024-09-23 18:51:59,150,172,84,40,3934.650617339874
2024-09-23 18:52:00,150,140,84,40,3945.000493660236
2024-09-23 18:52:01,150,171,85,40,3957.047724445659
2024-09-23 18:52:02,151,172,87,40,3967.4753137456023
2024-09-23 18:52:03,151,181,87,41,3978.5972942511216
2024-09-23 18:52:04,152,173,87,41,3990.3833022541444
2024-09-23 18:52:05,153,190,88,41,4000.8107054458696
2024-09-23 18:52:06,153,217,89,42,4013.5101342691287
2024-09-23 18:52:07,153,153,90,42,4024.208913477921
2024-09-23 18:52:08,153,159,90,42,4036.055649909043
2024-09-23 18:52:09,154,157,90,42,4047.897620804439
2024-09-23 18:52:10,154,152,90,42,4058.741882798404
2024-09-23 18:52:11,155,133,89,42,4070.1312928967977
2024-09-23 18:52:12,155,148,88,41,4081.7019556336904
2024-09-23 18:52:13,155,165,88,41,4093.2358829087652
2024-09-23 18:52:14,155,175,88,41,4104.780012615519
2024-09-23 18:52:15,154,141,88,41,4116.60510244303
2024-09-23 18:52:16,154,124,87,41,4126.614976700806
2024-09-23 18:52:17,155,138,86,40,4137.9273260898035
2024-09-23 18:52:18,154,152,85,40,4149.195466159447
2024-09-23 18:52:19,153,144,86,40,4160.680184776251
2024-09-23 18:52:20,153,128,85,40,4172.921432763998
2024-09-23 18:52:21,153,123,84,39,4181.736491233771
2024-09-23 18:52:22,153,133,84,39,4195.883193523352
2024-09-23 18:52:23,153,134,83,38,4204.2560845229345
2024-09-23 18:52:24,153,129,82,38,4213.920850453111
2024-09-23 18:52:25,153,134,82,38,4224.585057150654
2024-09-23 18:52:26,153,135,81,38,4234.132298467555
2024-09-23 18:52:27,152,128,80,37,4244.668027753961
2024-09-23 18:52:28,151,134,80,37,4255.158498385878
2024-09-23 18:52:29,150,131,80,37,4265.578344491454
2024-09-23 18:52:30,150,146,79,37,4276.223241204022
2024-09-23 18:52:30,150,133,79,37,4285.329553754461
2024-09-23 18:52:32,150,124,79,37,4295.925184966457
2024-09-23 18:52:32,149,131,78,37,4305.9457132809675
2024-09-23 18:52:33,150,126,78,36,4316.165744983486
2024-09-23 18:52:34,149,125,77,36,4325.57731382383
2024-09-23 18:52:35,149,130,77,36,4335.683967681061
2024-09-23 18:52:36,149,124,77,36,4345.259492938384
2024-09-23 18:52:37,149,141,76,36,4355.556133787498
2024-09-23 18:52:38,149,147,77,36,4365.912007797425
2024-09-23 18:52:39,149,145,77,36,4375.793251132301
2024-09-23 18:52:40,150,157,77,36,4385.001351802876
2024-09-23 18:52:41,150,158,78,37,4395.5720862772705
2024-09-23 18:52:42,150,171,79,37,4406.799256956575
2024-09-23 18:52:43,150,164,79,38,4415.53520337343
2024-09-23 18:52:44,150,173,80,38,4426.9681504031
2024-09-23 18:52:45,149,160,81,38,4436.665014328557
2024-09-23 18:52:46,149,205,82,39,4447.641990588107
2024-09-23 18:52:47,149,164,84,40,4458.768772058353
2024-09-23 18:52:48,149,154,85,40,4469.954859926302
2024-09-23 18:52:49,149,154,86,40,4480.316151811678
2024-09-23 18:52:50,149,144,85,40,4491.234517480928
2024-09-23 18:52:51,149,149,85,40,4502.679956183829
2024-09-23 18:52:52,150,138,85,40,4513.576069566274
2024-09-23 18:52:53,149,135,84,39,4523.855912062192
2024-09-23 18:52:54,149,136,84,39,4534.57605899837
2024-09-23 18:52:55,149,143,84,39,4545.835589789017
2024-09-23 18:52:56,149,161,84,39,4557.6492534273175
2024-09-23 18:52:57,149,141,83,39,4567.795210003188
2024-09-23 18:52:58,150,148,84,39,4578.4532608581885
2024-09-23 18:52:59,150,158,83,39,4588.381699270007
2024-09-23 18:53:00,150,162,84,39,4599.427177874906
2024-09-23 18:53:01,150,146,84,39,4610.783239902387
2024-09-23 18:53:02,150,177,84,40,4621.646608665252
2024-09-23 18:53:03,150,158,85,40,4632.014319154949
2024-09-23 18:53:04,151,153,85,40,4643.221060013769
2024-09-23 18:53:05,151,140,84,40,4654.0934365471185
2024-09-23 18:53:06,151,146,84,40,4664.946972179411
2024-09-23 18:53:07,151,146,85,39,4676.280983016224
2024-09-23 18:53:08,152,142,85,39,4686.510932768714
2024-09-23 18:53:09,151,138,83,39,4697.22058691912
2024-09-23 18:53:10,151,140,83,39,4708.1477546128945
2024-09-23 18:53:11,151,154,84,39,4719.078525506786
2024-09-23 18:53:12,153,160,83,39,4730.004777234791
2024-09-23 18:53:13,153,133,83,39,4740.155352938836
2024-09-23 18:53:14,153,141,83,39,4750.788602073323
2024-09-23 18:53:15,153,152,83,39,4761.698944389156
2024-09-23 18:53:16,153,139,83,39,4772.59055660102
2024-09-23 18:53:17,153,137,83,39,4782.608659440278
2024-09-23 18:53:18,153,137,83,38,4794.209223672416
2024-09-23 18:53:18,153,128,81,38,4803.87911111315
2024-09-23 18:53:19,154,127,81,38,4814.533283091253
2024-09-23 18:53:20,154,124,80,38,4825.097856228218
2024-09-23 18:53:21,153,139,81,37,4834.833294949265
2024-09-23 18:53:22,153,145,80,37,4845.337141143612
2024-09-23 18:53:23,153,153,80,37,4855.598559613359
2024-09-23 18:53:24,153,134,79,37,4866.0883702350975
2024-09-23 18:53:25,153,42,81,36,4876.297726058297
2024-09-23 18:53:26,153,18,141,34,4886.197537067863
2024-09-23 18:53:27,153,17,132,32,4894.139381054374
2024-09-23 18:53:28,153,16,122,30,4902.559810707966
2024-09-23 18:53:29,154,15,118,28,4910.435177909665
2024-09-23 18:53:30,155,13,107,26,4917.882502865128
2024-09-23 18:53:31,155,11,99,24,4923.937039779954
2024-09-23 18:53:32,154,11,95,22,4929.964924279848
2024-09-23 18:53:33,153,10,89,20,4935.615569953123
2024-09-23 18:53:34,153,7,77,18,4940.748597921926
2024-09-23 18:53:35,153,5,71,16,4945.52117389904
2024-09-23 18:53:36,153,4,64,15,4949.586570287412
2024-09-23 18:53:37,153,4,64,13,4952.924221828247
2024-09-23 18:53:38,152,2,57,11,4956.1886220879005
2024-09-23 18:53:39,151,1,50,10,4959.033837609819
2024-09-23 18:53:40,150,1,50,9,4961.554032306537
2024-09-23 18:53:41,150,1,50,10,4964.491700900262
2024-09-23 18:53:42,150,26,40,14,4967.965952985153
2024-09-23 18:53:43,150,140,34,17,4973.019955676793
2024-09-23 18:53:44,150,140,34,20,4978.600070836145
2024-09-23 18:53:45,149,145,35,22,4984.902755692931
2024-09-23 18:53:46,148,135,44,24,4991.090864613982
2024-09-23 18:53:47,148,121,49,25,4998.103080597188
2024-09-23 18:53:48,147,120,52,26,5005.173404600884
2024-09-23 18:53:49,147,117,55,26,5013.360161599185
2024-09-23 18:53:50,146,114,56,27,5020.377325063942
2024-09-23 18:53:51,144,117,57,27,5027.336319466431
2024-09-23 18:53:52,143,113,59,28,5034.966883019605
2024-09-23 18:53:53,142,114,60,28,5042.897922617858
2024-09-23 18:53:54,142,115,61,28,5051.111555724672
2024-09-23 18:53:55,141,111,60,29,5058.994481632443
2024-09-23 18:53:56,141,114,61,29,5066.520538102917
2024-09-23 18:53:57,140,115,62,29,5074.523901076448
2024-09-23 18:53:58,140,118,62,29,5082.805311477183
2024-09-23 18:53:59,139,121,63,30,5091.1735495123585
2024-09-23 18:54:00,139,117,64,30,5099.5987553364685
2024-09-23 18:54:01,139,115,64,30,5108.069792987239
2024-09-23 18:54:02,139,116,64,30,5115.734055137633
2024-09-23 18:54:03,139,113,64,30,5124.285340944924
2024-09-23 18:54:04,139,112,64,30,5132.802890878252
2024-09-23 18:54:05,139,112,65,30,5141.362050600183
2024-09-23 18:54:05,139,112,64,30,5149.070527747603
2024-09-23 18:54:07,139,111,65,30,5158.509225669833
2024-09-23 18:54:07,139,116,65,30,5166.222518884471
2024-09-23 18:54:08,139,109,66,30,5174.805357264808
2024-09-23 18:54:09,139,112,65,30,5183.377877086398
2024-09-23 18:54:10,139,114,64,30,5191.323413903843
2024-09-23 18:54:11,139,110,65,30,5199.915478986499
2024-09-23 18:54:12,139,113,65,30,5208.309758275745
2024-09-23 18:54:13,139,108,65,30,5216.913665349613
2024-09-23 18:54:14,139,102,65,30,5225.0246685471775
2024-09-23 18:54:15,139,100,65,30,5233.0847877608385
2024-09-23 18:54:16,139,112,65,30,5241.818056278094
2024-09-23 18:54:17,139,127,65,30,5251.052115641036
2024-09-23 18:54:18,139,126,65,31,5259.050683901705
2024-09-23 18:54:19,139,114,66,31,5267.504654492933
2024-09-23 18:54:20,139,16,81,30,5275.270488442976
2024-09-23 18:54:21,139,14,115,28,5282.92773714529
2024-09-23 18:54:22,139,13,111,26,5290.226684458386
2024-09-23 18:54:23,139,12,101,24,5296.949584389394
2024-09-23 18:54:24,139,11,95,22,5303.126899293395
2024-09-23 18:54:25,139,8,84,20,5308.230605489014
2024-09-23 18:54:26,139,7,78,18,5313.378610553343
2024-09-23 18:54:27,138,5,73,16,5318.493607050841
2024-09-23 18:54:28,138,3,66,15,5322.343816763823
2024-09-23 18:54:29,138,3,59,13,5325.685235606298
2024-09-23 18:54:30,138,3,59,11,5329.1968711098025
2024-09-23 18:54:31,139,3,59,10,5331.761474557717
2024-09-23 18:54:32,140,1,46,8,5334.208454642692
2024-09-23 18:54:33,140,1,46,7,5336.171426409482
2024-09-23 18:54:34,140,1,46,6,5338.007601623402
2024-09-23 18:54:35,141,1,46,4,5339.194928902387
2024-09-23 18:54:36,142,1,46,3,5340.266588440868
2024-09-23 18:54:37,142,1,46,2,5340.992821409304
2024-09-23 18:54:38,142,1,0,1,5341.456591624683
2024-09-23 18:54:39,142,1,0,0,5341.720371228455
2024-09-23 18:54:40,142,1,0,0,5341.890450777609
2024-09-23 18:54:41,141,0,0,0,5341.890450777609
2024-09-23 18:54:42,139,0,0,0,5341.890450777609
2024-09-23 18:54:43,138,0,0,0,5341.890450777609
2024-09-23 18:54:44,135,0,0,0,5341.890450777609
2024-09-23 18:54:45,133,0,0,0,5341.890450777609
2024-09-23 18:54:46,133,0,0,0,5341.890450777609
2024-09-23 18:54:47,131,0,0,0,5341.890450777609
2024-09-23 18:54:48,131,1,0,1,5342.409151283899
2024-09-23 18:54:49,132,0,27,4,5343.4480923990395
2024-09-23 18:54:50,131,0,27,9,5346.259336092074
2024-09-23 18:54:51,130,59,19,12,5349.295884791347
2024-09-23 18:54:52,129,59,19,15,5353.971122506591
2024-09-23 18:54:53,128,115,21,17,5358.918368319008
2024-09-23 18:54:53,128,113,34,19,5363.279563489887
2024-09-23 18:54:54,127,113,34,21,5369.16508224474
2024-09-23 18:54:55,128,113,40,22,5375.341700449916
2024-09-23 18:54:57,129,95,45,22,5381.838826401365
2024-09-23 18:54:57,129,91,47,23,5388.148350540133
2024-09-23 18:54:58,130,101,49,23,5394.280181864896
2024-09-23 18:54:59,129,103,51,24,5400.917708663144
2024-09-23 18:55:00,129,103,51,25,5407.884368870655
2024-09-23 18:55:01,129,107,52,25,5414.646018677949
2024-09-23 18:55:02,128,104,53,26,5421.720281524789
2024-09-23 18:55:03,127,116,54,26,5428.936113930409
2024-09-23 18:55:04,127,105,56,27,5436.629324333534
2024-09-23 18:55:05,127,109,57,27,5444.047825150356
2024-09-23 18:55:06,127,109,58,27,5451.738000908162
2024-09-23 18:55:07,128,106,58,27,5459.5102584183205
2024-09-23 18:55:08,128,111,59,28,5466.774878954886
2024-09-23 18:55:09,129,111,60,28,5474.485942379632
2024-09-23 18:55:10,130,110,60,28,5482.459795842567
2024-09-23 18:55:11,130,107,61,28,5490.471957542497
2024-09-23 18:55:12,130,110,61,29,5498.546514832971
2024-09-23 18:55:13,130,112,61,29,5505.8440035131225
2024-09-23 18:55:14,130,115,62,29,5514.036570533777
2024-09-23 18:55:15,130,120,62,29,5523.145605316426
2024-09-23 18:55:16,130,120,63,30,5530.671122415859
2024-09-23 18:55:17,130,115,63,30,5538.446697784793
2024-09-23 18:55:18,131,113,64,30,5546.679204854699
2024-09-23 18:55:19,131,117,64,30,5555.1589694235045
2024-09-23 18:55:20,132,109,65,30,5563.655068299504
2024-09-23 18:55:21,133,119,64,30,5572.1773320409975
2024-09-23 18:55:22,133,109,64,30,5580.716654957664
2024-09-23 18:55:23,133,115,65,30,5589.256807767019
2024-09-23 18:55:24,133,119,65,30,5597.884179307354
2024-09-23 18:55:25,133,120,65,31,5605.877908289432
2024-09-23 18:55:26,133,116,66,31,5615.217120395765
2024-09-23 18:55:27,133,107,65,31,5623.030123415257
2024-09-23 18:55:28,134,125,66,31,5630.882232900459
2024-09-23 18:55:29,134,134,66,31,5639.700978382427
2024-09-23 18:55:30,135,117,67,31,5648.525583616891
2024-09-23 18:55:31,135,103,67,31,5657.306998274722
2024-09-23 18:55:32,136,103,67,31,5665.183029228448
2024-09-23 18:55:33,135,114,66,31,5673.900417768954
2024-09-23 18:55:34,136,110,66,31,5682.663515259159
2024-09-23 18:55:35,136,124,67,31,5691.453079333569
2024-09-23 18:55:36,135,116,67,31,5700.515183835558
2024-09-23 18:55:37,136,114,67,31,5708.257833416593
2024-09-23 18:55:38,137,123,67,31,5718.011094029081
2024-09-23 18:55:39,137,118,67,32,5726.010713880591
2024-09-23 18:55:40,138,117,67,32,5734.897515679729
2024-09-23 18:55:41,139,117,67,32,5743.129938295151
2024-09-23 18:55:42,139,114,68,32,5752.088997457424
2024-09-23 18:55:42,139,118,68,32,5760.709895268413
2024-09-23 18:55:43,139,120,68,32,5769.647001887692
2024-09-23 18:55:44,139,117,68,32,5778.6447459605
2024-09-23 18:55:45,139,124,68,32,5786.969745531346
2024-09-23 18:55:46,138,122,68,32,5796.65881929265
2024-09-23 18:55:47,138,122,69,32,5805.706934523581
2024-09-23 18:55:48,139,126,69,32,5813.8907817443205
2024-09-23 18:55:49,140,131,69,32,5823.032452967431
2024-09-23 18:55:50,142,125,69,33,5832.207800778415
2024-09-23 18:55:51,142,124,70,33,5840.486674341228
2024-09-23 18:55:52,142,126,70,33,5850.639452693859
2024-09-23 18:55:53,142,142,70,33,5859.007555578152
2024-09-23 18:55:54,142,124,70,33,5867.639462087552
2024-09-23 18:55:55,142,115,71,33,5877.662242509259
2024-09-23 18:55:56,142,128,71,33,5886.067094220056
2024-09-23 18:55:57,142,132,71,33,5895.4778410686395
2024-09-23 18:55:58,141,151,72,34,5904.989449353351
2024-09-23 18:55:59,142,159,73,34,5914.929866480165
2024-09-23 18:56:00,141,152,74,35,5924.470357981656
2024-09-23 18:56:01,140,124,74,35,5933.294660870235
2024-09-23 18:56:02,140,124,74,35,5943.053796199958
2024-09-23 18:56:03,141,119,74,35,5952.808544144366
2024-09-23 18:56:04,141,140,74,35,5961.802042791579
2024-09-23 18:56:05,142,145,74,35,5971.386217424605
2024-09-23 18:56:06,142,166,75,35,5981.371335152786
2024-09-23 18:56:07,142,162,77,36,5991.489766278532
2024-09-23 18:56:08,142,168,78,36,6001.752692647776
2024-09-23 18:56:09,142,150,78,37,6011.296147493522
2024-09-23 18:56:10,142,107,77,36,6021.277889911997
2024-09-23 18:56:11,142,76,76,36,6031.278812303809
2024-09-23 18:56:12,142,64,74,34,6040.9395719349395
2024-09-23 18:56:13,142,59,73,33,6050.53692555229
2024-09-23 18:56:14,142,77,71,32,6059.351476998463
2024-09-23 18:56:15,142,79,70,31,6067.313042099609
2024-09-23 18:56:16,142,87,67,31,6075.990280352037
2024-09-23 18:56:17,142,96,66,30,6084.576332590978
2024-09-23 18:56:18,142,113,65,30,6093.098250034784
2024-09-23 18:56:19,142,142,66,31,6101.709894938603
2024-09-23 18:56:20,142,142,66,31,6109.612446018724
2024-09-23 18:56:21,142,137,67,32,6118.5318934838
2024-09-23 18:56:22,142,146,68,32,6127.601055211493
2024-09-23 18:56:23,142,128,68,32,6136.73529379633
2024-09-23 18:56:24,142,106,69,32,6145.828687795006
2024-09-23 18:56:25,142,113,69,32,6154.8742192228665
2024-09-23 18:56:26,142,115,69,32,6163.893383136064
2024-09-23 18:56:27,142,128,69,32,6171.813611733916
2024-09-23 18:56:28,142,134,68,32,6182.049338159962
2024-09-23 18:56:29,143,116,68,32,6190.273112222224
2024-09-23 18:56:30,144,74,71,32,6198.560920584867
2024-09-23 18:56:30,144,91,74,31,6207.133299506376
2024-09-23 18:56:32,145,94,77,31,6216.032133546806
2024-09-23 18:56:33,145,81,74,30,6225.233166614509
2024-09-23 18:56:33,145,114,72,30,6232.219344831178
2024-09-23 18:56:34,145,120,68,30,6240.557177209194
2024-09-23 18:56:35,146,117,66,30,6249.34358039631
2024-09-23 18:56:36,146,102,64,30,6257.24035220014
2024-09-23 18:56:37,146,120,65,30,6266.274090621208
2024-09-23 18:56:38,146,133,65,31,6274.978567984371
2024-09-23 18:56:39,145,123,66,31,6283.753438417119
2024-09-23 18:56:40,145,139,67,32,6291.797351813981
2024-09-23 18:56:41,144,132,69,32,6301.781615472504
2024-09-23 18:56:42,143,110,69,32,6309.301184645628
2024-09-23 18:56:43,143,99,69,32,6318.346710156734
2024-09-23 18:56:44,142,127,68,32,6327.12792709205
2024-09-23 18:56:45,142,117,69,32,6336.135188642477
2024-09-23 18:56:46,142,117,68,32,6345.357185556493
2024-09-23 18:56:47,142,109,68,32,6354.112872483335
2024-09-23 18:56:48,142,115,68,32,6363.283113159739
2024-09-23 18:56:49,142,113,68,32,6371.107940030763
2024-09-23 18:56:50,143,104,67,32,6380.005029273698
2024-09-23 18:56:51,144,114,67,31,6388.880470986501
2024-09-23 18:56:52,144,115,67,31,6397.745786363551
2024-09-23 18:56:53,144,119,67,31,6405.950471962825
2024-09-23 18:56:54,144,124,68,32,6414.676181273992
2024-09-23 18:56:55,144,129,68,32,6423.621939889592
2024-09-23 18:56:56,144,113,68,32,6432.5988507370175
2024-09-23 18:56:57,144,120,68,32,6441.547482188545
2024-09-23 18:56:58,144,106,68,32,6449.77729523447
2024-09-23 18:56:59,145,99,67,31,6458.362770907086
2024-09-23 18:57:00,145,91,66,31,6467.283720681405
2024-09-23 18:57:01,145,86,65,30,6475.833352064426
2024-09-23 18:57:02,145,76,64,30,6483.997323866025
2024-09-23 18:57:03,145,73,63,29,6492.1653453171275
2024-09-23 18:57:04,144,77,62,28,6499.568455319274
2024-09-23 18:57:05,145,83,61,28,6507.430825079152
2024-09-23 18:57:06,145,85,60,27,6515.190963166954
2024-09-23 18:57:07,145,87,59,27,6522.901641295355
2024-09-23 18:57:08,146,147,59,28,6529.997552884289
2024-09-23 18:57:09,146,141,60,29,6537.928201719789
2024-09-23 18:57:10,145,121,62,29,6546.224527143771
2024-09-23 18:57:11,145,105,63,29,6554.532834684188
2024-09-23 18:57:12,145,114,63,30,6562.8681832691045
2024-09-23 18:57:13,145,115,64,30,6571.266074459421
2024-09-23 18:57:14,146,114,64,30,6578.84407927659
2024-09-23 18:57:15,147,104,64,30,6586.8211869816
2024-09-23 18:57:16,147,107,64,30,6595.213457868497
2024-09-23 18:57:17,147,108,63,30,6604.032645626201
2024-09-23 18:57:17,147,107,63,30,6611.583914033572
2024-09-23 18:57:18,146,110,63,30,6619.996824898984
2024-09-23 18:57:19,146,108,64,30,6628.380757621924
2024-09-23 18:57:20,144,102,64,30,6636.131410084168
2024-09-23 18:57:21,143,111,64,30,6644.504871441921
2024-09-23 18:57:22,142,107,64,30,6652.878613544173
2024-09-23 18:57:23,142,111,64,30,6661.0898986167385
2024-09-23 18:57:24,142,119,64,30,6669.560494046742
2024-09-23 18:57:25,142,122,64,30,6678.285625969702
2024-09-23 18:57:26,142,111,65,30,6685.767784079579
2024-09-23 18:57:27,142,120,65,30,6694.554497616159
2024-09-23 18:57:28,142,121,65,31,6703.189732346933
2024-09-23 18:57:29,142,115,65,31,6711.858002458017
2024-09-23 18:57:30,142,127,66,31,6719.709618248543
2024-09-23 18:57:31,142,115,66,31,6728.230261363587
2024-09-23 18:57:32,142,108,66,31,6736.976455428866
2024-09-23 18:57:33,142,111,66,31,6745.677934572433
2024-09-23 18:57:34,142,108,66,31,6754.352090407743
2024-09-23 18:57:35,142,108,66,31,6763.005398372147
2024-09-23 18:57:36,142,103,66,31,6770.753580192063
2024-09-23 18:57:37,142,106,65,30,6779.332277903292
2024-09-23 18:57:38,141,104,65,30,6787.844432728821
2024-09-23 18:57:39,140,100,65,30,6797.1555548760625
2024-09-23 18:57:40,139,113,64,30,6804.118557355139
2024-09-23 18:57:41,139,114,64,30,6812.599497911666
2024-09-23 18:57:42,139,98,64,30,6821.0542537543515
2024-09-23 18:57:43,139,97,64,30,6829.459709446961
2024-09-23 18:57:44,139,101,64,30,6838.444715058805
2024-09-23 18:57:45,139,124,64,30,6845.372726102672
2024-09-23 18:57:46,139,121,64,30,6853.624001514913
2024-09-23 18:57:47,139,118,64,30,6862.172247289288
2024-09-23 18:57:48,139,130,65,31,6871.017886379032
2024-09-23 18:57:49,139,122,66,31,6879.5000993039885
2024-09-23 18:57:50,141,122,66,31,6888.242378718324
2024-09-23 18:57:51,140,117,67,31,6896.1476549082345
2024-09-23 18:57:52,140,126,66,31,6904.785474973256
2024-09-23 18:57:53,141,127,67,32,6913.913262562621
2024-09-23 18:57:54,141,124,68,32,6922.20855070154
2024-09-23 18:57:55,141,118,68,32,6931.188164159325
2024-09-23 18:57:56,141,115,68,32,6939.943423169852
2024-09-23 18:57:57,142,129,68,32,6948.955654921136
2024-09-23 18:57:58,142,121,68,32,6957.991063586872
2024-09-23 18:57:59,142,114,68,32,6967.025895905495
2024-09-23 18:58:00,142,116,68,32,6976.964857298137
2024-09-23 18:58:01,142,123,69,32,6984.179872672426
2024-09-23 18:58:02,142,110,69,32,6994.079220243958
2024-09-23 18:58:03,142,110,68,32,7002.137210616139
2024-09-23 18:58:04,143,73,67,31,7010.241838564476
2024-09-23 18:58:04,143,16,103,29,7018.34244428542
2024-09-23 18:58:05,143,14,113,27,7026.087987065978
2024-09-23 18:58:06,143,13,108,25,7033.254872407517
2024-09-23 18:58:07,143,11,97,23,7039.52238593499
2024-09-23 18:58:08,143,10,93,21,7045.42961402072
2024-09-23 18:58:09,144,8,85,19,7050.853226920633
2024-09-23 18:58:10,145,8,85,19,7056.285406086844
2024-09-23 18:58:11,145,97,69,21,7062.762804530066
2024-09-23 18:58:12,145,139,60,23,7068.7416263832
2024-09-23 18:58:13,146,126,47,24,7074.895258755818
2024-09-23 18:58:14,146,120,52,25,7081.983176067142
2024-09-23 18:58:15,146,120,52,26,7089.856550227273
2024-09-23 18:58:16,146,120,54,26,7096.780402872299
2024-09-23 18:58:17,144,111,56,27,7104.202506992554
2024-09-23 18:58:18,143,111,57,27,7111.346254590487
2024-09-23 18:58:19,141,123,58,28,7119.850653079485
2024-09-23 18:58:20,140,125,59,28,7127.281616269882
2024-09-23 18:58:21,139,112,60,29,7135.3463866187485
2024-09-23 18:58:22,138,97,61,28,7143.192822751073
2024-09-23 18:58:23,137,99,62,29,7151.449773725538
2024-09-23 18:58:24,136,111,62,29,7158.5667740749
2024-09-23 18:58:25,136,130,62,29,7166.857813548381
2024-09-23 18:58:26,136,120,62,30,7174.795576077701
2024-09-23 18:58:27,137,125,63,30,7183.7072676003
2024-09-23 18:58:28,138,124,65,30,7191.641929486727
2024-09-23 18:58:29,139,126,65,31,7200.076295130123
2024-09-23 18:58:30,139,121,66,31,7208.997175543179
2024-09-23 18:58:31,140,123,66,31,7217.778328477015
2024-09-23 18:58:32,141,125,66,31,7226.408725224604
2024-09-23 18:58:33,143,124,67,31,7234.614615692036
2024-09-23 18:58:34,143,114,67,32,7244.164981051289
2024-09-23 18:58:35,143,122,68,32,7252.442358464005
2024-09-23 18:58:36,143,128,68,32,7261.177317266334
2024-09-23 18:58:37,143,111,68,32,7269.430999535325
2024-09-23 18:58:38,143,114,68,32,7279.056639450791
2024-09-23 18:58:39,142,117,68,32,7287.086817289064
2024-09-23 18:58:40,143,136,68,32,7296.094664216044
2024-09-23 18:58:41,143,139,69,32,7305.442091464999
2024-09-23 18:58:42,142,145,70,33,7313.753636274076
2024-09-23 18:58:43,142,137,70,33,7323.090848990284
2024-09-23 18:58:44,142,138,71,33,7332.28501869043
2024-09-23 18:58:45,142,128,71,34,7341.9727047880515
2024-09-23 18:58:46,142,128,72,34,7351.202384654021
2024-09-23 18:58:47,143,126,72,34,7359.954088381267
2024-09-23 18:58:48,143,120,72,34,7369.189193479885
2024-09-23 18:58:49,143,133,72,34,7378.696442824605
2024-09-23 18:58:50,144,135,73,34,7388.511316400769
2024-09-23 18:58:51,144,143,73,34,7397.905992815894
2024-09-23 18:58:52,144,131,73,34,7407.584591267509
2024-09-23 18:58:53,145,125,73,34,7416.521938441199
2024-09-23 18:58:53,145,120,73,34,7425.922891243301
2024-09-23 18:58:54,145,136,74,34,7435.563074872231
2024-09-23 18:58:55,145,140,74,34,7445.26342015664
2024-09-23 18:58:56,147,132,74,35,7454.995471082133
2024-09-23 18:58:57,147,133,74,35,7464.020682519014
2024-09-23 18:58:58,148,136,74,35,7473.79125766357
2024-09-23 18:58:59,148,134,74,35,7483.61921300226
2024-09-23 18:59:00,147,132,75,35,7492.949205949573
2024-09-23 18:59:01,146,132,74,35,7502.272959592609
2024-09-23 18:59:02,146,121,75,35,7513.047928255136
2024-09-23 18:59:03,146,119,74,35,7521.802751908039
2024-09-23 18:59:04,146,117,73,34,7531.243473162255
2024-09-23 18:59:05,146,113,72,34,7541.055873956285
2024-09-23 18:59:06,146,105,72,34,7550.328718572857
2024-09-23 18:59:07,146,115,72,33,7559.050853305394
2024-09-23 18:59:08,145,114,72,33,7568.191612972155
2024-09-23 18:59:09,144,111,71,33,7577.459671278796
2024-09-23 18:59:10,144,124,70,33,7586.953894201916
2024-09-23 18:59:11,143,130,71,33,7595.309341780347
2024-09-23 18:59:12,143,127,71,33,7604.392521880072
2024-09-23 18:59:13,142,121,71,33,7613.707994059723
2024-09-23 18:59:14,142,115,70,33,7623.247786951067
2024-09-23 18:59:15,143,157,71,33,7631.68521663348
2024-09-23 18:59:16,144,146,72,34,7641.196422209344
2024-09-23 18:59:17,146,132,72,34,7650.7800138294715
2024-09-23 18:59:18,146,138,73,34,7660.412047193449
2024-09-23 18:59:19,146,137,73,34,7669.855331079829
2024-09-23 18:59:20,146,145,74,35,7678.874687743851
2024-09-23 18:59:21,146,133,74,35,7689.382633758255
2024-09-23 18:59:22,146,116,74,35,7698.400700440011
2024-09-23 18:59:23,146,123,74,34,7707.871062600614
2024-09-23 18:59:24,146,128,73,35,7717.60149049163
2024-09-23 18:59:25,146,142,74,35,7727.603980005451
2024-09-23 18:59:26,147,124,74,35,7736.438998081288
2024-09-23 18:59:27,148,121,74,35,7745.936078323923
2024-09-23 18:59:28,147,116,74,34,7755.631954850755
2024-09-23 18:59:29,150,123,74,34,7765.29630751014
2024-09-23 18:59:30,148,120,73,34,7774.88239121371
2024-09-23 18:59:31,149,126,73,34,7783.528854833048
2024-09-23 18:59:32,149,132,73,34,7793.119932086602
2024-09-23 18:59:33,150,123,73,34,7802.7231353448515
2024-09-23 18:59:34,150,127,73,34,7813.261458898255
2024-09-23 18:59:35,150,126,73,34,7821.891288744081
2024-09-23 18:59:36,150,123,73,34,7830.509611486066
2024-09-23 18:59:37,150,125,73,34,7841.030522249806
2024-09-23 18:59:38,150,126,73,34,7850.600292222369
2024-09-23 18:59:39,150,135,73,34,7860.212297005787
2024-09-23 18:59:40,149,131,73,34,7869.85911287798
2024-09-23 18:59:40,149,132,73,34,7877.605192945402
2024-09-23 18:59:41,149,124,73,34,7887.251434663933
2024-09-23 18:59:42,149,122,73,34,7896.881917138896
2024-09-23 18:59:43,149,128,73,34,7906.532237700623
2024-09-23 18:59:45,149,129,74,34,7918.051253747942
2024-09-23 18:59:45,150,137,73,34,7924.782012240756
2024-09-23 18:59:46,150,128,73,34,7935.3982376145
2024-09-23 18:59:47,150,122,73,34,7945.025464486414
2024-09-23 18:59:48,150,119,73,34,7953.660031747157
2024-09-23 18:59:49,150,145,74,34,7963.292730730111
2024-09-23 18:59:50,151,127,73,34,7971.990985076296
2024-09-23 18:59:51,150,123,73,34,7981.644330555202
2024-09-23 18:59:52,150,126,73,34,7991.260597044231
2024-09-23 18:59:53,150,136,73,34,8000.951769723496
2024-09-23 18:59:54,150,128,73,34,8010.617387745779
2024-09-23 18:59:55,150,127,74,34,8019.348302598133
2024-09-23 18:59:56,151,137,74,34,8029.028231123422
2024-09-23 18:59:57,151,148,74,35,8038.816265284354
2024-09-23 18:59:58,151,148,75,35,8048.722794446019
2024-09-23 18:59:59,152,145,75,35,8060.703475662736
2024-09-23 19:00:00,153,154,76,36,8067.752577005494
2024-09-23 19:00:01,153,149,77,36,8078.910411773789
2024-09-23 19:00:02,153,148,77,36,8088.111842380631
2024-09-23 19:00:03,153,140,77,36,8098.313871938654
2024-09-23 19:00:04,153,135,77,36,8108.531715124185
2024-09-23 19:00:05,153,126,78,36,8117.657349734838
2024-09-23 19:00:06,153,116,76,36,8127.7448741131375
2024-09-23 19:00:07,152,123,76,35,8137.2338110380715
2024-09-23 19:00:08,151,115,76,35,8147.631229519183
2024-09-23 19:00:09,150,111,75,35,8156.476159945462
2024-09-23 19:00:10,149,121,75,35,8166.236299768422
2024-09-23 19:00:11,149,110,74,34,8175.88190363182
2024-09-23 19:00:12,149,109,73,34,8186.393214315176
2024-09-23 19:00:13,149,113,72,34,8194.914692484008
2024-09-23 19:00:14,149,113,71,33,8203.386247998476
2024-09-23 19:00:15,149,110,71,33,8212.71530077325
2024-09-23 19:00:16,149,111,70,33,8222.893531929123
2024-09-23 19:00:17,149,109,70,33,8232.06350979805
2024-09-23 19:00:18,149,102,70,32,8241.148628744815
2024-09-23 19:00:19,149,98,68,32,8250.12144828174
2024-09-23 19:00:20,150,91,68,31,8257.19277629985
2024-09-23 19:00:21,150,90,67,31,8265.884144807525
2024-09-23 19:00:22,150,92,66,30,8276.198685074516
2024-09-23 19:00:23,150,99,65,30,8282.99825098581
2024-09-23 19:00:24,150,97,64,30,8291.43247479333
2024-09-23 19:00:25,149,95,64,29,8298.85835677518
2024-09-23 19:00:26,148,15,85,28,8307.428237846827
2024-09-23 19:00:27,147,13,106,26,8314.66971785294
2024-09-23 19:00:28,146,12,100,24,8320.680325082278
2024-09-23 19:00:28,146,10,97,22,8326.217981495462
2024-09-23 19:00:29,147,30,83,20,8331.970360335377
2024-09-23 19:00:30,146,30,83,19,8337.369352555937
2024-09-23 19:00:31,145,18,67,17,8342.294548649259
2024-09-23 19:00:32,145,6,57,15,8346.728677525785
2024-09-23 19:00:33,146,4,58,14,8350.303665592935
2024-09-23 19:00:34,146,3,60,12,8354.178951983982
2024-09-23 19:00:35,146,1,52,11,8356.965242502425
2024-09-23 19:00:36,146,1,52,9,8359.641812027163
2024-09-23 19:00:37,146,0,44,8,8362.184533245696
2024-09-23 19:00:38,146,0,44,8,8364.358805763059
2024-09-23 19:00:39,146,18,38,10,8367.09783587522
2024-09-23 19:00:40,146,18,38,13,8370.579002237982
2024-09-23 19:00:41,144,83,32,15,8375.05830216474
2024-09-23 19:00:42,144,95,33,17,8379.597808212704
2024-09-23 19:00:43,143,95,33,18,8384.505009851853
2024-09-23 19:00:44,142,91,36,19,8389.994748021496
2024-09-23 19:00:45,141,93,40,20,8395.736389237642
2024-09-23 19:00:46,139,93,40,21,8401.676583624547
2024-09-23 19:00:47,139,90,43,21,8407.148824705017
2024-09-23 19:00:48,138,81,45,22,8413.924050072828
2024-09-23 19:00:49,139,75,47,22,8419.499979615211
2024-09-23 19:00:50,139,75,47,22,8425.727928551038
2024-09-23 19:00:51,138,76,47,22,8431.975451207161
2024-09-23 19:00:52,138,79,47,22,8437.643680906296
2024-09-23 19:00:53,137,81,47,22,8444.63726388481
2024-09-23 19:00:54,136,81,48,23,8450.430238825084
2024-09-23 19:00:55,136,81,48,23,8456.875687223674
2024-09-23 19:00:56,136,83,49,23,8464.031403823694
2024-09-23 19:00:57,136,82,49,23,8469.279572459061
2024-09-23 19:00:58,136,83,50,23,8475.860088380177
2024-09-23 19:00:59,136,77,50,23,8483.764224425951
2024-09-23 19:01:00,136,77,50,23,8489.006150619189
2024-09-23 19:01:01,136,74,50,23,8495.5339720726
2024-09-23 19:01:02,136,77,49,23,8501.40469479362
2024-09-23 19:01:03,138,71,49,23,8508.520042642618
2024-09-23 19:01:04,139,72,50,22,8514.264276211128
2024-09-23 19:01:05,139,23,55,21,8520.302762103742
2024-09-23 19:01:06,139,9,66,19,8525.824078559212
2024-09-23 19:01:07,139,7,74,18,8530.567564568253
2024-09-23 19:01:08,139,7,74,18,8535.596286059748
2024-09-23 19:01:09,139,61,63,19,8541.113084253997
2024-09-23 19:01:10,139,102,50,21,8547.00552872088
2024-09-23 19:01:11,139,116,41,22,8553.257666842803
2024-09-23 19:01:12,141,113,48,23,8559.163943631116
2024-09-23 19:01:13,142,113,48,24,8565.939977527323
2024-09-23 19:01:14,143,105,50,24,8572.884691174158
2024-09-23 19:01:15,142,99,52,25,8580.613710022631
2024-09-23 19:01:16,143,97,53,25,8587.012014016174
2024-09-23 19:01:16,143,97,54,25,8593.478564640545
2024-09-23 19:01:18,142,99,54,26,8601.469175971875
2024-09-23 19:01:19,142,100,55,26,8609.535686210787
2024-09-23 19:01:19,142,103,56,26,8615.100550181332
2024-09-23 19:01:20,141,107,57,27,8622.974969383078
2024-09-23 19:01:21,141,101,57,27,8629.795357932644
2024-09-23 19:01:22,141,111,57,27,8637.451920332509
2024-09-23 19:01:23,142,106,58,27,8645.17193220125
2024-09-23 19:01:24,142,106,58,27,8652.951987253293
2024-09-23 19:01:25,142,102,58,28,8660.7658668273
2024-09-23 19:01:26,142,104,59,28,8667.835536608429
2024-09-23 19:01:27,142,108,59,28,8675.651512030758
2024-09-23 19:01:28,142,68,59,28,8684.28213364283
2024-09-23 19:01:29,143,190,59,30,8691.882825899122
2024-09-23 19:01:30,143,124,67,32,8700.072622386611
2024-09-23 19:01:31,143,145,70,33,8709.269935401278
2024-09-23 19:01:32,144,111,70,33,8718.51796259946
2024-09-23 19:01:33,144,107,70,33,8727.678206070925
2024-09-23 19:01:34,145,117,70,32,8736.823138867483
2024-09-23 19:01:35,145,132,70,33,8745.113732956514
2024-09-23 19:01:36,145,133,71,33,8755.34578901794
2024-09-23 19:01:37,146,120,70,33,8763.747227410473
2024-09-23 19:01:38,146,118,71,33,8773.053207564351
2024-09-23 19:01:39,148,113,70,33,8782.32612891197
2024-09-23 19:01:40,148,114,71,33,8790.636990788245
2024-09-23 19:01:41,149,117,70,33,8799.819608162506
2024-09-23 19:01:42,149,107,70,32,8808.937098892528
2024-09-23 19:01:43,149,98,69,32,8817.979535977043
2024-09-23 19:01:44,149,32,76,31,8826.695018061
2024-09-23 19:01:45,149,16,108,29,8834.049937007161
2024-09-23 19:01:46,150,14,112,27,8842.402496125962
2024-09-23 19:01:47,150,13,106,25,8848.71579485999
2024-09-23 19:01:48,150,11,98,23,8855.834203722741
2024-09-23 19:01:49,150,10,92,21,8861.178033236
2024-09-23 19:01:50,150,7,80,19,8866.049006494548
2024-09-23 19:01:51,150,6,75,17,8870.957108672459
2024-09-23 19:01:52,150,4,68,15,8875.35937116411
2024-09-23 19:01:53,150,3,61,14,8879.309400815433
2024-09-23 19:01:54,151,3,61,12,8883.157682345973
2024-09-23 19:01:55,151,2,55,11,8885.921820435258
2024-09-23 19:01:56,151,2,55,9,8888.311805786027
2024-09-23 19:01:57,150,2,55,8,8890.57538215783
2024-09-23 19:01:58,149,2,55,6,8892.468851968315
2024-09-23 19:01:59,147,2,55,5,8894.156451176936
2024-09-23 19:02:00,146,2,55,4,8895.120917848084
2024-09-23 19:02:01,144,2,0,3,8896.014518880182
2024-09-23 19:02:02,142,2,0,2,8896.625713040432
2024-09-23 19:02:03,142,2,0,1,8896.970114863581
2024-09-23 19:02:04,142,2,0,0,8897.142578319046
2024-09-23 19:02:04,140,2,0,0,8897.224841288064
2024-09-23 19:02:05,139,0,0,0,8897.224841288064
2024-09-23 19:02:06,139,0,0,0,8897.224841288064
2024-09-23 19:02:07,139,0,0,0,8897.224841288064
2024-09-23 19:02:08,139,0,0,0,8897.224841288064
2024-09-23 19:02:09,138,0,0,0,8897.224841288064
2024-09-23 19:02:10,138,0,0,0,8897.224841288064
2024-09-23 19:02:11,137,0,0,0,8897.224841288064
2024-09-23 19:02:12,137,0,0,0,8897.224841288064
2024-09-23 19:02:13,137,0,0,0,8897.224841288064
2024-09-23 19:02:14,137,0,0,0,8897.224841288064
2024-09-23 19:02:15,138,0,0,0,8897.224841288064
2024-09-23 19:02:16,137,0,0,0,8897.224841288064
2024-09-23 19:02:17,137,0,0,0,8897.224841288064
2024-09-23 19:02:18,135,0,0,0,8897.224841288064
2024-09-23 19:02:19,134,0,0,0,8897.224841288064
2024-09-23 19:02:20,131,0,0,0,8897.224841288064
2024-09-23 19:02:21,130,0,0,0,8897.224841288064
2024-09-23 19:02:22,127,2,0,0,8897.224841288064
2024-09-23 19:02:23,126,0,36,2,8898.044076685774
2024-09-23 19:02:24,125,0,36,4,8899.15342665977
2024-09-23 19:02:25,125,0,36,8,8901.70735542443
2024-09-23 19:02:26,124,49,25,11,8904.710734881957
2024-09-23 19:02:27,124,49,25,14,8908.763954359292
2024-09-23 19:02:28,122,97,19,16,8912.845600110291
2024-09-23 19:02:29,121,89,31,17,8917.792977527113
2024-09-23 19:02:30,115,89,31,19,8923.619000647463
2024-09-23 19:02:31,111,93,37,20,8928.658605659006
2024-09-23 19:02:32,110,93,41,21,8935.08753579325
2024-09-23 19:02:33,110,93,41,21,8939.919056757952
2024-09-23 19:02:34,110,91,44,22,8946.12133170035
2024-09-23 19:02:35,112,92,46,22,8952.167981760367
2024-09-23 19:02:36,114,94,48,23,8958.998020648292
2024-09-23 19:02:37,115,98,49,23,8965.656228571466
2024-09-23 19:02:38,115,93,50,24,8971.73997606966
2024-09-23 19:02:39,116,93,50,24,8978.599668214054
2024-09-23 19:02:40,116,95,51,25,8986.251627728672
2024-09-23 19:02:41,118,99,52,25,8992.615712417495
2024-09-23 19:02:42,119,105,53,25,8999.796583792897
2024-09-23 19:02:43,120,91,54,25,9006.998385653229
2024-09-23 19:02:44,122,86,57,25,9014.219014317458
2024-09-23 19:02:45,122,111,60,26,9020.806136241223
2024-09-23 19:02:46,124,92,63,26,9028.174633538722
2024-09-23 19:02:47,125,106,64,26,9035.645995963281
2024-09-23 19:02:48,127,109,65,27,9042.46702745623
2024-09-23 19:02:49,130,104,66,27,9050.85435947842
2024-09-23 19:02:50,131,108,67,27,9058.536624010403
2024-09-23 19:02:51,131,110,68,27,9066.285410710838
2024-09-23 19:02:51,132,100,68,28,9072.516586908367
2024-09-23 19:02:52,133,96,68,28,9080.307088295618
2024-09-23 19:02:53,133,101,68,28,9088.121824232736
2024-09-23 19:02:55,133,112,68,28,9097.55878504912
2024-09-23 19:02:55,132,100,69,28,9103.866860975158
2024-09-23 19:02:56,132,92,69,28,9110.956595020823
2024-09-23 19:02:57,132,116,69,28,9118.899157104226
2024-09-23 19:02:58,131,108,69,28,9126.89676528904
2024-09-23 19:02:59,131,113,70,28,9134.931604978772
2024-09-23 19:03:00,132,100,71,29,9143.017206381426
2024-09-23 19:03:01,132,108,71,29,9150.291085346538
2024-09-23 19:03:03,132,113,71,29,9160.108045421042
2024-09-23 19:03:03,132,103,71,29,9166.589162272214
2024-09-23 19:03:04,132,118,72,29,9174.77262028853
2024-09-23 19:03:05,132,118,72,29,9183.058840156924
2024-09-23 19:03:06,132,109,73,29,9190.523078466784
2024-09-23 19:03:07,132,105,73,29,9198.823592974077
2024-09-23 19:03:08,132,105,73,29,9207.085420310494
2024-09-23 19:03:09,132,100,73,29,9215.342466769613
2024-09-23 19:03:10,132,100,72,29,9223.533824918664
2024-09-23 19:03:11,133,103,72,29,9230.930355499186
2024-09-23 19:03:12,134,111,71,29,9239.143081880276
2024-09-23 19:03:13,135,108,72,29,9247.384718679717
2024-09-23 19:03:14,136,100,72,29,9255.60756510827
2024-09-23 19:03:15,136,106,72,29,9263.805647380483
2024-09-23 19:03:16,136,103,72,29,9271.182678064371
2024-09-23 19:03:17,136,99,72,29,9279.342549536625
2024-09-23 19:03:18,136,95,72,29,9287.451669673124
2024-09-23 19:03:19,136,89,71,28,9295.47815007766
2024-09-23 19:03:20,136,109,70,28,9303.501183385319
2024-09-23 19:03:21,136,124,71,29,9311.592161326276
2024-09-23 19:03:22,137,114,72,29,9318.957874243128
2024-09-23 19:03:23,137,116,72,29,9327.203550879824
2024-09-23 19:03:24,137,117,72,29,9335.114546704956
2024-09-23 19:03:25,137,113,72,30,9343.87519398994
2024-09-23 19:03:26,137,107,73,30,9351.385999192795
2024-09-23 19:03:27,137,104,73,30,9359.737840602796
2024-09-23 19:03:28,138,114,73,30,9368.091336756946
2024-09-23 19:03:29,139,119,74,30,9377.370107695131
2024-09-23 19:03:30,139,111,74,30,9384.985053265758
2024-09-23 19:03:31,139,108,74,30,9392.616400233244
2024-09-23 19:03:32,139,120,74,30,9401.113704911208
2024-09-23 19:03:33,140,112,74,30,9409.646549421552
2024-09-23 19:03:34,141,128,75,31,9418.418516216678
2024-09-23 19:03:35,141,200,73,33,9427.653111670417
2024-09-23 19:03:36,142,167,72,34,9438.168948462939
2024-09-23 19:03:37,142,150,74,35,9449.900515366928
