timestamp,heart_rate,power,cadence,speed,distance
2024-08-30 17:53:59,98,57,46,18,3.6730725288391106
2024-08-30 17:54:00,98,53,46,18,8.972678891817727
2024-08-30 17:54:01,98,58,45,18,14.142335776487984
2024-08-30 17:54:02,98,59,46,18,18.946475867430365
2024-08-30 17:54:03,98,59,46,18,24.048362390200293
2024-08-30 17:54:04,100,58,45,18,29.308487023909883
2024-08-30 17:54:05,101,50,45,18,34.36104367640283
2024-08-30 17:54:06,102,50,45,17,39.13281689551141
2024-08-30 17:54:07,102,3,51,15,43.03869458105829
2024-08-30 17:54:08,102,3,51,13,46.79880562689569
2024-08-30 17:54:09,102,2,54,12,50.115675151348114
2024-08-30 17:54:10,101,1,52,10,52.928854967488185
2024-08-30 17:54:11,101,1,52,9,55.56256087819735
